14 5 112.898 191.277 110.823 200.56 98.9484 202.309 89.4102 216.026 87.2029 224.827 124.274 200.521 131.793 218.004 133.828 227.493 105.752 229.783 0 0 0 0 122.37 231.714 0 0 0 0
15 5 169.319 166.924 171.966 182.008 157.707 182.155 155.112 204.788 153.149 229.532 183.964 181.945 199.976 191.306 199.705 186.776 162.615 227.125 0 0 0 0 183.88 224.978 0 0 0 0
15 9 381.23 128.245 400.274 139.821 397.292 139.311 0 0 0 0 406.762 141.911 416.484 173.421 416.042 204.802 395.372 191.298 385.887 236.468 393.086 283.661 404.53 193.442 400.272 240.833 407.132 283.391
16 5 165.165 168.992 171.257 180.002 155.151 182.237 152.788 202.622 152.766 224.86 183.34 177.945 200.033 193.332 193.229 186.815 162.366 222.84 0 0 0 0 183.316 220.66 0 0 0 0
16 9 385.817 128.089 406.685 139.521 400.12 135.038 0 0 0 0 409.312 141.947 423.459 173.264 416.657 207.076 399.941 191.204 390.703 236.397 406.965 280.991 407.174 193.492 402.479 242.778 409.504 281.441
17 2 0 0 298.874 148.596 312.879 146.307 324.624 173.286 317.66 157.831 284.871 146.365 272.823 170.858 0 0 301.106 202.417 303.078 256.452 275.511 290.323 278.047 202.36 284.868 247.557 277.623 292.345
17 5 164.508 166.87 165.108 179.965 152.706 181.944 148.285 200.516 152.753 211.378 181.112 177.895 197.494 193.661 185.907 200.034 157.64 222.734 0 0 0 0 178.597 220.58 0 0 0 0
17 9 390.393 124.001 409.152 137.361 402.504 136.915 0 0 0 0 415.989 139.315 425.975 173.063 418.561 206.89 400.308 193.631 400.167 242.903 421.192 281.29 409.563 195.735 406.984 245.032 418.62 283.414
18 2 0 0 296.681 148.72 310.692 150.689 324.755 173.414 329.266 166.566 284.372 146.33 268.285 170.953 0 0 294.065 204.837 293.74 258.735 259.024 296.791 275.584 202.551 289.345 254.376 275.28 294.789
18 5 162.195 166.596 164.425 179.889 148.366 181.801 143.636 200.399 155.328 202.804 178.788 175.914 195.329 195.679 183.343 193.381 153.216 224.906 0 0 0 0 174.548 220.686 0 0 0 0
18 9 390.943 121.574 411.775 137.176 406.902 136.925 0 0 0 0 418.566 137.497 428.244 166.757 425.527 202.628 406.986 191.366 409.274 240.75 437.406 272.231 416.031 193.604 407.169 242.877 435.378 271.976
19 2 0 0 293.973 152.88 306.04 154.965 324.47 175.614 340.861 168.795 280.197 148.634 265.898 171.003 275.534 186.947 289.449 207.009 280.221 256.648 256.501 299.368 275.205 202.75 284.612 251.862 275.044 292.665
19 5 159.865 166.575 162.595 181.838 146.224 181.885 143.339 202.654 145.63 227.385 178.579 179.776 193.094 197.904 178.692 200.236 152.993 229.42 0 0 0 0 174.297 227.307 0 0 0 0
19 9 397.504 121.306 416.282 137.356 407.146 137.141 406.736 170.918 390.917 191.408 423.411 137.423 434.956 170.881 425.977 204.792 409.183 193.472 406.963 238.782 416.365 285.766 418.92 193.518 416.413 240.758 444.986 265.927
20 2 0 0 291.626 155.19 303.654 155.328 317.784 175.607 336.569 175.526 278 152.809 259.275 173.248 0 0 287.103 206.833 277.685 256.612 251.792 303.706 273.002 202.658 282.186 251.882 272.732 294.814
20 5 155.724 164.403 157.757 179.965 143.239 182.052 136.352 202.63 143.459 211.522 173.918 177.871 188.117 197.83 178.715 195.746 148.391 229.36 0 0 0 0 171.612 227.187 0 0 0 0
20 9 400.091 121.453 418.939 137.103 409.832 135 407.168 166.534 393.001 190.935 426.163 137.232 437.605 166.879 430.607 202.556 411.807 190.964 411.832 238.627 413.924 288.059 423.343 190.968 421.176 240.693 456.902 265.88
21 2 0 0 287.413 152.928 301.283 155.199 317.754 177.747 334.369 175.839 275.556 148.815 258.775 173.055 0 0 282.351 204.689 278.051 256.574 256.433 297.042 268.02 202.398 277.881 252.019 268.379 294.727
21 5 155.08 163.998 155.446 177.9 140.973 177.974 133.747 200.205 138.876 207.013 171.814 177.781 183.465 200.003 171.595 202.671 145.742 227.179 0 0 0 0 171.351 222.922 0 0 0 0
21 9 404.72 119.31 425.615 137.016 416.31 132.976 411.881 166.542 397.487 190.861 432.943 137.274 444.345 168.752 435.268 202.521 416.656 193.476 432.933 238.49 463.678 265.615 426.03 193.729 414.194 244.934 411.821 290.053
22 2 0 0 286.942 148.837 296.94 152.912 310.494 175.853 326.984 181.919 275.143 148.325 256.308 168.956 266.01 188.968 282.295 202.614 280.097 254.287 256.502 299.4 265.808 200.394 277.466 249.759 265.949 297.095
22 5 148.361 164.067 152.873 181.827 134.236 182.162 131.657 208.893 136.239 235.959 169.35 177.869 181.348 200.221 162.493 202.391 143.403 229.5 0 0 0 0 169.277 227.227 0 0 0 0
22 9 407.166 119.129 428.046 137.172 418.633 136.966 416.211 166.4 399.743 190.964 437.413 137.303 447.274 166.844 444.632 200.141 425.721 191.408 444.816 238.321 473.053 272.434 434.987 191.392 416.597 245.252 411.671 294.861
23 2 0 0 284.795 148.36 296.459 148.798 305.635 175.611 322.331 177.768 274.812 146.097 256.038 166.648 270.869 170.938 278.015 204.724 275.408 256.346 249.717 303.783 263.527 202.521 275.135 251.969 266.049 299.254
23 5 80.4236 186.889 82.3173 200.208 68.1574 200.226 61.0217 220.756 61.5537 236.136 96.5055 200.264 105.587 220.572 101.417 236.169 75.051 238.283 0 0 0 0 94.1183 236.314 0 0 0 0
23 9 409.649 119.476 432.797 137.114 421.319 136.94 418.621 166.306 402.447 191.175 442.164 137.17 454.089 166.637 449.353 200.155 428.113 193.402 421.357 245.302 411.644 292.435 442.158 191.37 453.843 243.03 475.608 274.797
24 1 322.327 121.661 341.461 132.887 334.247 135.043 0 0 0 0 350.488 130.818 378.567 150.964 359.86 166.516 352.711 188.955 369.289 231.73 390.935 272.183 360.277 186.752 350.28 233.923 357.519 274.802
24 2 0 0 284.231 146.349 294.006 148.701 306.28 177.676 322.374 173.332 270.728 141.932 254.127 163.893 268.553 168.688 275.504 202.742 272.705 256.878 247.162 307.956 259.143 202.361 272.985 254.251 266.053 299.085
24 5 79.6604 188.972 77.6601 200.289 61.6019 202.277 54.2247 224.825 58.5613 240.631 91.7642 200.001 101.289 218.479 98.8224 229.614 70.331 238.362 0 0 0 0 89.6057 236.381 0 0 0 0
24 9 414.063 121.238 435.417 137.33 425.63 137.185 421.142 166.887 400.266 202.335 446.774 137.268 461.165 170.817 454.441 202.795 435.192 193.693 461.207 247.305 482.226 287.987 446.926 193.796 428.105 247.638 414.045 290.152
25 1 324.445 118.829 341.327 130.211 331.998 130.708 0 0 0 0 350.648 128.012 378.51 141.988 359.907 159.826 350.774 184.533 366.875 229.331 390.93 267.682 362.624 182.252 350.375 227.117 357.685 274.539
25 2 0 0 280.044 143.941 291.535 146.357 306.277 175.426 312.856 155.324 268.383 139.77 254.068 161.936 265.767 157.511 272.713 202.832 270.497 256.808 247.346 305.979 258.729 202.358 270.813 254.27 265.965 298.905
25 5 136.787 166.521 141.236 181.884 126.813 182.185 115.466 200.313 126.991 199.956 155.105 179.856 164.978 202.274 0 0 129.516 220.412 117.792 211.712 122.21 238.503 152.674 222.811 0 0 0 0
25 9 416.442 121.943 439.957 137.43 428.259 137.133 425.788 166.854 409.283 197.841 451.74 137.366 465.569 166.782 463.477 200.422 442.295 191.287 463.14 245.396 482.602 290.165 453.951 191.279 435.506 247.611 416.118 290.134
26 1 329.345 112.864 343.591 127.912 331.846 128.43 0 0 0 0 353.255 123.854 380.967 137.53 364.667 155.264 352.661 181.965 360.068 224.825 388.086 265.677 364.741 177.778 350.222 224.913 359.856 274.525
26 2 0 0 277.644 141.863 289.352 146.296 308.426 175.372 310.455 152.985 265.987 139.401 254.11 161.789 0 0 268.533 202.728 270.74 254.427 249.412 305.974 256.474 200.375 268.315 252.004 265.459 299.249
26 9 419.041 125.796 444.63 139.168 432.857 137.451 428.11 168.703 416.242 196 456.374 137.342 472.611 166.432 468.416 202.725 447.171 195.843 463.664 249.728 484.92 290.387 463.186 193.671 444.684 249.854 423.511 290.313
27 1 331.47 112.312 345.861 123.839 334.01 128.203 0 0 0 0 355.521 121.639 381.092 136.808 362.281 148.473 352.714 181.951 362.375 227.097 385.922 267.848 364.807 177.807 350.47 227.049 362.11 274.542
27 2 0 0 274.976 141.925 284.711 146.026 306.292 173.089 310.592 148.514 263.472 139.772 256.52 157.741 0 0 265.841 202.831 272.859 258.915 247.09 308.091 251.913 202.489 270.494 256.633 261.057 301.587
27 5 124.723 166.226 136.196 182.189 117.945 182.144 108.626 209.245 117.626 240.777 150.606 182.034 162.288 206.872 0 0 124.62 236.312 0 0 0 0 146.093 236.318 0 0 0 0
27 9 425.728 123.929 447.355 139.224 435.414 139.478 432.686 171.003 416.731 200.015 463.117 137.253 477.823 166.89 475.171 202.724 451.691 195.899 451.667 245.215 435.266 287.958 466.21 193.802 468.394 247.646 487.167 297.107
28 1 331.56 110.325 348.268 121.917 334.438 127.829 0 0 0 0 360.017 121.387 383.688 136.952 364.853 143.93 353.016 181.916 362.58 227.342 383.636 269.963 366.912 177.835 350.707 227.136 362.173 276.905
28 2 289.643 128.53 272.805 139.82 284.337 143.958 305.72 172.924 305.793 146.106 261.162 137.498 0 0 0 0 263.48 204.831 277.582 258.777 246.855 308.004 249.298 202.566 266.087 256.623 258.646 303.889
28 5 61.2479 191.045 60.8625 202.525 42.6214 204.834 39.5379 229.39 39.9942 244.896 77.3303 202.274 86.7122 224.929 84.6421 240.914 51.7924 242.94 0 0 0 0 72.9595 240.919 0 0 0 0
28 9 428.378 125.775 454.091 139.274 437.843 139.482 437.295 170.783 425.408 200.072 468.225 137.182 484.484 166.824 482.368 202.388 458.858 193.592 475.169 252.035 491.706 307.999 473.113 191.418 456.194 249.695 444.378 292.641
29 1 331.765 110.411 350.549 121.724 336.695 125.887 332.001 145.868 331.685 130.717 362.455 119.448 385.784 139.584 364.901 130.827 353.113 180.061 362.656 229.62 381.481 272.298 368.999 177.833 352.876 229.332 362.057 281.191
29 2 331.765 110.411 350.549 121.724 336.695 125.887 332.001 145.868 331.685 130.717 362.455 119.448 385.784 139.584 364.901 130.827 353.113 180.061 362.656 229.62 381.481 272.298 368.999 177.833 352.876 229.332 362.057 281.191
29 5 58.6459 191.265 58.4815 202.73 42.048 204.796 35.4091 229.286 35.3561 242.966 73.1598 202.558 82.5905 222.916 80.1905 240.763 49.3444 244.895 0 0 0 0 70.5512 242.82 0 0 0 0
29 9 434.879 121.932 456.592 137.418 444.252 137.451 442.198 170.926 428.072 202.66 472.71 136.902 491.549 164.051 489.216 200.371 463.715 195.771 465.89 252.007 458.857 314.957 481.911 191.429 477.636 249.906 491.837 308.363
30 1 336.397 110.542 352.773 123.901 338.681 127.849 331.496 146.509 338.593 128.213 367.103 121.743 385.757 139.925 364.614 126.017 353.22 182.484 362.634 236.158 381.302 276.876 369.248 182.435 355.311 235.893 362.254 281.078
30 2 0 0 268.295 139.649 280.021 141.876 305.802 166.847 301.22 146.107 256.447 137.369 0 0 0 0 258.938 209.037 277.371 256.809 251.851 312.894 244.594 204.779 270.633 256.708 258.669 310.664
30 5 58.4346 191.48 52.1758 202.85 37.6783 204.947 30.5847 227.47 32.9189 244.875 68.3707 202.578 77.8801 224.934 79.7679 238.346 49.0643 242.822 0 0 0 0 68.2292 240.78 0 0 0 0
30 9 440.067 121.759 463.569 137.051 446.779 134.993 444.894 166.56 437.405 200.192 482.134 136.945 498.805 166.706 494.289 202.295 466.11 193.701 473.148 254.132 484.887 301.54 484.49 193.461 482.131 254.351 487.197 308.243
31 1 340.933 112.785 355.452 125.905 341.321 128.109 327.115 146.127 341.176 123.909 371.497 123.82 387.986 148.511 374.22 128.367 357.525 184.791 369.083 238.606 387.84 276.851 371.639 184.706 357.426 236.447 362.429 283.709
31 2 0 0 267.97 139.765 279.964 143.958 308.505 166.659 310.357 141.87 254.035 137.401 0 0 0 0 259.008 209.357 274.879 261.102 247.314 317.128 240.369 204.891 275.008 258.825 256.527 312.887
31 5 51.8192 191.124 51.5126 202.441 35.3032 202.933 30.2557 227.181 30.6561 240.694 65.9052 200.514 77.3402 220.655 75.2904 238.465 42.5315 242.909 0 0 0 0 65.733 240.742 0 0 0 0
31 9 447.106 121.42 472.5 137.39 453.803 139.563 447.265 168.882 444.492 200.119 489.43 136.773 503.956 166.589 503.62 200.012 475.183 195.776 482.348 253.889 491.909 292.658 492.022 193.508 491.392 252.022 494.313 301.404
32 1 345.935 118.832 359.833 130.574 343.462 132.699 324.532 148.54 341.125 125.994 376.278 128.374 385.727 152.784 371.691 130.793 357.455 191.391 369.395 242.868 388.389 281.372 374.147 191.071 359.701 240.863 362.586 287.984
32 2 0 0 265.778 139.857 277.674 143.802 313.134 164.177 312.96 150.76 249.651 137.45 0 0 0 0 258.807 209.317 270.585 263.414 246.98 319.434 240.205 204.896 270.748 258.886 263.362 310.436
32 5 108.13 166.764 122.139 181.833 105.586 182.048 98.8004 209.29 103.61 247.301 136.318 179.837 143.425 207.013 0 0 115.007 240.689 0 0 0 0 136.255 238.415 0 0 0 0
32 9 456.295 119.232 477.792 134.898 463.113 136.822 458.779 168.882 447.163 202.748 494.41 132.817 513.107 164.283 510.886 200.343 482.276 193.51 491.411 251.9 498.889 294.844 501.205 191.188 494.535 247.654 503.792 299.077
33 1 0 0 263.52 139.658 275.424 139.925 308.487 166.655 312.652 150.833 249.494 137.359 242.344 159.887 0 0 259.068 209.1 268.08 263.058 246.898 319.64 242.398 204.702 268.566 258.687 268.136 308.085
33 2 0 0 263.52 139.658 275.424 139.925 308.487 166.655 312.652 150.833 249.494 137.359 242.344 159.887 0 0 259.068 209.1 268.08 263.058 246.898 319.64 242.398 204.702 268.566 258.687 268.136 308.085
33 5 108.023 166.664 117.525 182.329 101.114 182.471 96.3823 211.44 0 0 133.842 182.052 143.374 206.967 0 0 108.194 238.627 0 0 0 0 134.035 238.369 0 0 0 0
33 9 465.534 119.131 485.099 134.76 470.408 134.824 465.741 166.587 456.357 199.917 503.49 132.799 522.126 166.457 522.078 202.317 484.616 193.803 494.324 249.92 501.375 303.75 503.709 193.775 505.905 249.743 524.911 303.699
34 1 353.345 121.759 367.058 130.936 352.788 132.826 331.528 148.474 345.946 130.299 381.455 132.915 378.78 150.85 367.037 130.416 362.191 195.74 371.668 247.283 395.238 283.614 379.107 193.659 362.798 245.23 366.816 290.247
34 2 284.603 126.018 265.681 137.529 275.445 139.562 303.404 170.734 310.64 148.49 253.913 135.008 237.723 150.983 247.177 146.093 258.785 206.972 263.379 263.328 246.961 319.766 242.482 202.49 265.871 258.683 272.902 301.496
34 5 103.509 166.737 115.54 182.211 99.1466 182.394 96.2423 211.763 96.2782 236.327 129.588 181.986 138.874 206.921 0 0 108.532 236.419 0 0 0 0 131.662 236.281 0 0 0 0
34 9 472.901 117.05 493.951 132.872 475.209 132.787 472.72 164.261 465.591 195.933 512.652 132.868 531.448 166.783 529.685 202.692 489.456 195.728 498.636 252.052 503.608 301.46 512.749 195.682 515.485 251.842 541.014 301.693
35 1 357.646 121.354 369.636 132.828 355.332 132.883 331.952 148.856 348.183 130.622 385.715 132.936 379.021 154.833 364.724 130.871 362.221 195.822 369.181 247.462 397.468 283.287 381.012 195.883 367.126 247.464 369.506 290.323
35 2 284.636 127.929 265.526 136.988 272.8 137.162 294.153 168.841 308.222 150.775 254.079 134.913 0 0 0 0 258.588 202.782 258.986 258.827 246.583 319.713 244.541 200.286 263.54 253.969 275.19 299.086
35 5 103.302 166.645 115.074 184.291 96.6594 184.533 91.7933 218.364 89.6354 231.842 127.352 182.354 134.142 208.959 0 0 108.158 238.601 0 0 0 0 131.598 238.412 0 0 0 0
35 9 481.899 116.977 501.362 132.974 482.572 134.746 477.611 166.605 473.034 198.068 520.204 134.827 538.903 170.757 538.945 204.964 496.519 200.087 503.569 254.216 508.275 301.362 520.005 197.858 529.585 254.108 550.943 305.96
36 1 360.132 116.779 371.767 130.66 355.503 130.526 333.821 148.251 350.349 130.371 388.313 130.853 378.645 152.849 369.136 132.674 362.626 193.779 369.102 247.284 395.081 283.5 381.449 195.733 369.137 247.633 371.965 294.807
36 2 284.376 125.977 265.473 136.886 268.183 137.14 287.365 168.802 306.053 148.298 256.701 132.913 280.073 159.906 0 0 256.151 202.537 256.219 260.864 246.602 321.881 242.447 200.151 265.602 251.825 274.984 299.337
36 5 98.9114 166.929 112.745 184.328 96.4487 184.758 89.4978 218.184 89.7922 236.156 126.807 182.218 133.811 202.731 0 0 105.946 240.906 0 0 0 0 129.49 238.391 0 0 0 0
36 9 489.131 116.832 510.553 132.946 491.389 132.766 484.447 166.429 477.904 200.103 529.61 132.999 548.01 166.871 548.55 202.837 503.298 198.077 506.01 254.209 510.59 303.883 529.311 197.898 541.059 254.341 562.591 308.314
37 1 367.046 118.912 378.55 130.572 360.056 128.166 334.171 139.806 353.076 123.775 393.073 132.892 376.522 155.103 371.6 130.662 369.006 193.324 371.951 247.359 397.521 283.834 385.932 193.78 371.475 245.409 371.814 294.702
37 2 282.311 123.885 265.845 134.914 265.491 134.931 289.36 166.283 312.74 137.429 0 0 0 0 0 0 251.708 200.236 253.957 256.464 242.491 319.704 240.288 197.806 265.611 251.864 275.338 301.499
37 5 94.0537 166.9 108.543 182.112 96.3782 184.309 89.61 213.848 94.0982 240.768 124.387 180.006 131.568 202.526 0 0 108.039 238.501 0 0 0 0 124.658 236.175 0 0 0 0
37 9 496.563 116.805 519.532 134.819 496.644 132.897 491.654 166.416 484.723 200.093 538.978 134.825 557.913 168.773 559.747 204.938 510.533 202.389 512.883 260.811 512.722 312.745 538.566 200.238 550.427 256.665 574.009 312.813
38 0 91.739 166.379 108.292 181.992 96.5057 184.299 89.679 211.634 0 0 122.081 179.849 126.846 200.459 0 0 115.241 236.043 0 0 0 0 117.794 236.059 0 0 0 0
38 1 369.325 112.898 381.111 130.715 364.819 128.291 0 0 0 0 397.272 132.977 378.684 155.405 372.087 137.1 371.486 193.499 378.758 247.399 400.258 283.842 388.123 193.826 372.007 245.23 376.256 297.044
38 2 275.341 119.434 261.301 130.662 261.415 130.693 291.542 162.03 303.772 139.366 256.469 130.288 282.167 155.147 334.234 121.372 246.839 200.011 251.712 258.745 237.396 319.649 249.503 197.934 272.65 245.088 277.398 299.43
38 9 505.946 114.959 528.986 134.839 503.975 132.833 500.676 166.456 492.047 199.895 550.435 134.884 569.113 166.868 569.807 204.903 519.778 202.719 519.59 256.7 519.795 310.484 548.397 202.47 560.078 256.799 579.092 310.616
39 0 87.2701 164.431 105.864 181.899 96.1768 182.316 89.1375 211.587 84.5578 231.895 115.4 177.972 124.404 204.859 0 0 108.454 236.247 0 0 0 0 119.918 233.95 0 0 0 0
39 1 376.476 114.678 385.809 130.488 371.603 125.991 343.648 123.693 343.612 118.977 399.833 132.984 378.749 155.234 378.535 130.591 371.932 193.605 383.465 247.498 400.225 283.517 390.304 195.737 372.285 245.061 378.51 294.946
39 2 272.789 116.877 256.759 128.185 258.748 128.096 293.925 155.462 303.513 130.686 254.115 128.014 282.273 150.824 296.474 130.84 246.897 193.73 249.745 256.629 225.939 317.494 249.436 193.581 270.597 247.396 277.346 299.122
39 9 513.227 114.943 536.23 132.795 512.882 130.892 503.558 166.534 501.23 200.328 557.806 132.803 578.672 168.708 579.094 204.689 526.83 202.397 522.254 256.513 522.251 306.001 557.357 200.393 567.239 256.791 585.798 312.897
40 1 0 0 388.1 127.994 371.809 119.271 338.892 126.009 341.2 116.98 400.309 130.601 378.745 152.962 378.708 121.565 372.14 191.422 381.35 245.233 400.367 281.419 390.64 193.679 376.372 242.88 378.612 294.849
40 2 266.127 110.321 253.969 121.816 254.185 121.459 294.384 143.978 303.074 125.972 247.066 121.755 0 0 0 0 246.952 193.391 249.266 256.378 211.869 314.866 239.971 191.407 272.628 242.968 275.564 296.891
40 9 522.647 114.84 543.673 132.769 520.162 130.901 510.843 166.564 503.84 204.743 567.241 132.699 588.234 166.899 588.301 206.779 532.211 204.754 529.154 256.596 524.891 303.73 566.803 202.686 576.518 261.032 588.534 312.901
41 1 0 0 388.45 123.843 372.087 119.135 341.189 121.591 366.915 112.598 402.289 128.242 378.453 150.766 378.781 119.165 374.275 191.109 385.64 245.044 404.603 283.381 390.931 193.339 378.364 244.978 378.815 292.824
41 2 268.256 103.532 249.699 119.072 249.257 118.93 294.241 132.876 303.295 92.3689 254.028 118.973 0 0 0 0 237.651 193.627 244.651 254.213 202.735 301.476 251.824 193.373 268.534 247.399 275.383 294.842
41 9 529.489 112.643 550.471 130.433 527.035 130.293 519.526 166.54 510.556 202.668 574.112 130.417 595.627 166.823 597.556 202.84 541.131 202.524 531.616 254.279 529.122 301.467 574.049 202.456 581.253 260.959 595.157 317.223
42 1 374.138 103.278 390.616 121.269 372.041 112.801 345.83 121.475 366.835 110.075 406.593 123.829 379.107 144.031 378.612 119.358 376.463 184.643 381.278 238.723 407.038 283.517 397.229 186.885 378.571 238.513 379.049 292.736
42 2 263.486 94.6519 244.583 112.617 240.213 112.598 291.804 125.785 298.924 92.3823 249.319 112.745 0 0 0 0 237.279 191.311 235.252 254.322 193.129 294.693 249.293 189.001 268.596 245.027 275.06 292.722
42 9 536.316 110.151 557.529 128.219 531.977 128.224 522.237 164.405 519.524 202.702 581.104 128.135 604.633 166.815 604.918 204.771 545.696 200.281 534.284 256.437 531.887 301.632 578.839 200.27 588.258 262.93 598.04 317.409
43 1 381.458 98.8582 392.941 116.983 376.501 112.41 348.261 121.782 369.485 107.935 407.265 121.251 381.104 139.444 364.905 130.555 378.995 184.296 381.188 238.333 409.289 283.667 397.843 184.682 378.583 236.193 381.496 294.836
43 2 258.851 94.6485 239.993 112.328 237.53 112.392 289.392 119.446 296.597 89.9478 244.633 110.443 284.584 121.664 0 0 230.551 193.383 228.387 254.304 185.891 294.745 249.284 191.025 268.493 236.277 275.065 292.601
43 9 541.017 105.974 564.561 125.872 539.032 125.829 529.294 163.825 522.191 200.424 588.52 125.796 611.645 164.136 614.071 202.76 550.424 197.858 538.765 254.084 541.452 301.799 585.794 199.957 595.334 263.069 602.346 319.566
44 1 353.059 204.943 352.936 224.95 334.162 227.259 0 0 0 0 0 0 0 0 0 0 0 0 0 0 0 0 0 0 0 0 0 0
44 2 249.508 96.7285 237.362 112.491 232.928 112.598 285.011 119.202 291.753 85.6222 237.703 110.357 284.814 119.427 0 0 228.131 195.728 221.302 256.412 176.457 308.131 249.128 191.339 270.538 236.298 274.863 294.668
44 9 548.161 103.479 569.843 121.517 545.837 121.442 534.065 161.802 529.284 200.399 597.484 121.68 616.813 166.354 623.244 202.569 557.344 195.829 541.527 254.129 552.996 301.328 590.817 197.885 600.146 258.808 606.773 319.428
45 1 0 0 397.828 112.731 383.487 110.166 357.736 119.406 0 0 409.469 116.967 374.234 132.749 376.342 116.953 390.474 181.951 381.33 245.236 413.971 289.914 404.504 184.364 371.832 244.93 381.569 294.729
45 2 251.819 94.4164 230.987 112.321 230.708 112.451 282.149 119.353 287.236 85.5694 230.679 110.345 0 0 0 0 225.791 195.876 218.65 256.797 173.856 312.834 242.325 191.014 272.876 236.242 272.936 299.39
46 2 249.524 91.9822 230.608 110.544 227.916 110.555 279.956 121.324 284.49 81.0883 235.302 110.36 0 0 0 0 221.174 197.859 211.824 258.657 171.496 317.011 240 189.004 275.147 236.244 272.756 297.089
47 1 359.828 101.244 406.804 118.869 399.827 117.032 369.635 130.33 0 0 413.915 119.027 369.676 128.303 369.291 110.163 400.011 184.754 383.495 242.953 388.264 297 413.941 188.985 371.923 238.719 418.796 290.306
47 2 251.687 87.8568 228.449 110.052 228.02 110.008 274.97 121.938 282.084 107.947 230.52 109.935 0 0 0 0 221.42 193.512 211.551 256.454 171.529 317.173 235.186 186.765 272.95 233.834 274.932 305.938
47 7 564.607 92.5184 588.557 112.905 562.502 112.838 550.545 155.186 547.938 193.847 616.567 112.846 0 0 0 0 576.058 190.958 560.356 251.949 583.406 301.29 611.651 191.281 614.344 256.244 620.942 317.107
48 0 54.3105 173.466 77.8757 182.166 68.3538 182.483 61.3217 218.171 68.1022 233.99 87.0297 181.943 96.7566 220.611 77.7485 242.772 82.3072 238.384 0 0 0 0 105.642 236.406 0 0 0 0
48 1 362.762 202.516 362.076 222.89 340.937 222.87 329.254 243.061 0 0 378.767 222.813 0 0 0 0 0 0 0 0 0 0 0 0 0 0 0 0
48 2 254.028 92.1604 230.712 107.916 223.78 107.838 265.564 130.33 268.398 112.567 235.358 105.793 0 0 0 0 218.894 191.147 209.288 254.388 171.484 317.188 240.039 184.654 274.889 229.882 275.616 294.754
48 7 569.782 91.9446 597.475 112.679 569.522 112.523 557.606 153.074 552.872 197.844 623.392 112.796 0 0 0 0 579.179 191.026 569.24 254.399 590.778 303.916 616.622 191.363 623.572 256.423 626.143 319.725
49 0 0 0 9.16562 191.067 5.0935 193.518 0 0 0 0 28.1348 188.88 37.5387 220.421 32.7412 238.44 0 0 0 0 0 0 26.0395 238.452 0 0 0 0
49 1 0 0 419.056 119.475 418.779 119.483 0 0 0 0 421.331 119.509 376.276 130.382 381.372 112.429 430.505 188.926 409.31 242.875 428.209 285.969 419.057 190.945 378.773 242.913 397.215 294.709
49 2 265.564 90.0337 237.703 103.396 228.137 101.332 259.016 130.481 266.051 108.028 246.815 103.548 261.133 130.568 261.359 105.814 218.798 186.715 206.877 251.925 171.917 317.204 244.47 182.392 268.55 236.328 277.774 301.569
49 7 576.503 91.8261 602.378 112.601 576.096 112.534 564.593 152.986 559.781 195.701 626.17 112.674 0 0 0 0 585.695 190.997 576.588 254.047 597.979 317.112 623.27 193.393 626.212 256.49 628.595 321.763
50 0 61.1395 175.799 79.8063 182.532 67.8527 184.513 70.4726 216.004 75.1829 238.78 91.9332 182.115 108.261 218.007 82.5773 242.869 89.638 227.324 0 0 0 0 115.191 227.405 0 0 0 0
50 1 0 0 426.087 119.088 432.969 117.073 0 0 0 0 421.15 119.474 374.339 130.473 385.922 108.013 442.259 184.421 419.17 238.41 435.48 288.046 425.779 186.78 385.888 242.995 402.573 296.914
50 2 266.09 85.7715 242.497 101.477 230.86 101.291 263.398 130.46 272.796 110.012 256.33 103.357 265.859 130.568 0 0 219.038 184.507 204.755 252.027 176.738 317.197 246.812 182.057 270.515 238.869 282.177 299.092
50 7 581.223 92.0606 606.817 112.856 579.202 112.73 569.199 157.24 567.123 195.902 0 0 0 0 0 0 592.711 191.374 585.766 254.383 602.269 321.813 626.424 193.56 628.591 258.763 0 0
51 1 0 0 428.155 114.722 428.175 114.66 0 0 0 0 428.542 114.84 374.319 127.919 388.077 107.976 447.123 184.471 437.8 247.488 437.688 297.056 435.339 184.78 395.21 245.167 411.773 297.09
51 2 275.367 83.4511 249.242 98.8332 237.526 100.801 266.145 128.162 287.06 103.429 258.925 96.7875 312.875 82.9953 343.596 74.2732 221.392 184.494 206.809 251.834 181.113 316.987 249.688 182.037 275.471 242.865 284.997 294.864
51 9 586.029 92.1619 611.828 112.689 585.916 112.653 576.473 155.202 569.893 200.175 0 0 0 0 0 0 597.396 191.282 594.98 256.651 606.812 324.055 0 0 0 0 0 0
52 1 0 0 437.904 112.738 444.662 112.508 0 0 0 0 435.403 119.11 376.448 123.722 402.367 112.598 458.846 184.734 447.502 254.106 447.487 303.827 437.63 186.715 404.774 247.261 418.668 299.421
52 2 284.455 85.3098 254.193 96.8865 240.377 96.6896 270.492 128.231 289.4 103.291 265.939 98.8635 270.559 128.251 0 0 227.879 177.871 209.309 247.478 183.636 308.245 256.222 177.766 277.857 238.498 291.526 292.699
52 5 70.7998 175.601 87.1499 184.668 72.9952 186.737 77.4677 215.856 79.9413 234.08 103.463 184.612 122.19 216.04 124.368 235.984 94.1765 229.67 0 0 0 0 115.414 229.428 0 0 0 0
52 9 590.534 92.429 616.417 114.773 590.838 114.792 581.199 155.476 578.733 200.351 0 0 0 0 0 0 602.236 191.231 602.348 260.834 609.386 326.235 0 0 0 0 0 0
53 0 82.4276 175.748 96.0598 188.797 77.8459 191.214 77.3938 218.185 79.815 236.478 110.61 186.859 129.594 220.681 0 0 0 0 0 0 0 0 0 0 0 0 0 0
53 1 407.283 90.0008 440.236 105.915 451.589 96.712 0 0 0 0 428.446 119.052 381.166 121.609 374.265 83.4449 466.089 180.025 456.336 245.246 461.122 305.966 444.707 184.715 416.134 245.132 421.43 301.465
53 2 284.95 82.9766 258.783 94.9384 247.18 94.6016 274.791 127.853 287.059 103.312 268.492 96.8253 322.414 92.3291 0 0 230.529 179.92 211.675 247.816 183.539 303.741 258.695 177.808 282.156 238.376 296.299 294.779
53 9 595.25 94.5745 621.062 118.902 595.302 119.189 586.127 159.958 583.597 202.271 0 0 0 0 0 0 607.178 195.745 609.388 262.929 611.84 326.331 0 0 0 0 0 0
54 1 413.909 89.9575 447.235 103.87 458.823 94.7365 0 0 0 0 435.167 119.14 387.753 123.838 378.624 85.5799 475.311 179.91 463.444 240.783 474.998 294.894 454.124 184.476 418.621 245.272 426.104 301.677
54 2 291.653 81.0447 259.224 94.9396 249.586 94.5778 275.064 126.043 293.982 101.48 275.028 100.849 0 0 0 0 235.204 177.768 211.854 247.473 183.397 301.605 261.109 175.697 284.731 236.259 296.917 292.761
54 7 413.909 89.9575 447.235 103.87 458.823 94.7365 0 0 0 0 435.167 119.14 387.753 123.838 378.624 85.5799 475.311 179.91 463.444 240.783 474.998 294.894 454.124 184.476 418.621 245.272 426.104 301.677
55 1 421.389 80.9146 451.632 105.898 465.929 94.7836 0 0 0 0 435.492 119.019 390.842 130.647 385.826 99.0117 477.885 180.051 472.612 245.081 491.889 301.456 454.132 184.322 426.082 247.387 428.294 308.08
55 2 291.574 81.0236 263.496 96.7114 249.713 94.5732 277.465 125.842 291.732 103.756 277.498 99.0501 282.295 125.798 294.255 107.755 237.655 177.694 211.95 249.778 181.333 301.554 263.546 175.475 286.888 235.996 301.057 294.83
55 7 597.878 101.033 623.591 123.827 597.989 126.04 592.886 166.703 590.514 208.993 0 0 0 0 0 0 614.233 202.556 616.33 265.389 616.241 330.677 0 0 0 0 0 0
56 1 428.426 74.2422 456.275 105.916 472.666 94.667 0 0 0 0 438.013 117.031 404.597 139.787 397.633 110.355 484.464 181.968 481.952 245.267 500.78 296.79 456.599 184.377 428.476 247.246 430.719 301.778
56 2 293.759 76.64 265.542 94.6095 249.792 94.6131 284.44 121.372 303.695 103.361 277.545 94.6711 284.782 121.641 0 0 239.901 175.598 216.282 247.719 183.812 297.045 265.704 175.58 289.69 236.267 303.497 297.001
56 9 597.668 101.303 623.843 127.891 599.971 128.048 594.889 171.008 594.906 211.56 0 0 0 0 0 0 616.483 209.081 616.624 267.784 618.804 335.024 0 0 0 0 0 0
57 1 430.644 85.5234 461.189 108.058 479.868 94.7199 0 0 0 0 442.343 119.158 416.611 148.749 407.13 119.398 491.611 179.98 485.12 245.069 512.602 299.182 456.895 182.433 435.389 245.116 432.874 308.111
57 2 287.217 82.96 259.106 94.7542 249.692 94.886 287.38 119.414 305.871 92.2259 268.378 94.5896 287.241 119.063 0 0 237.897 182.425 218.892 243.024 190.752 292.512 268.309 179.932 294.261 236.289 305.789 299.203
57 5 99.2262 184.754 112.705 200.499 91.7386 200.448 80.239 226.86 84.6425 242.915 131.711 202.497 143.118 229.713 108.261 244.932 99.0365 249.868 0 0 0 0 127.298 249.753 0 0 0 0
57 7 597.636 103.621 625.689 128.241 600.09 128.329 595.084 173.213 595.034 218.054 0 0 0 0 0 0 616.818 211.441 618.944 272.008 623.119 337.442 0 0 0 0 0 0
58 1 0 0 468.36 110.31 489.348 100.964 0 0 0 0 447.279 121.386 428.236 157.261 416.65 132.632 494.272 186.764 498.55 249.845 522.115 301.638 461.113 188.925 437.495 245.393 432.821 317.227
58 2 286.886 83.3731 261.203 101.166 249.657 101.004 289.466 121.367 303.542 89.9562 272.713 101.059 289.573 121.483 0 0 237.904 184.568 219.09 245.402 192.959 303.683 270.547 182.293 296.869 238.407 308.276 299.175
58 5 108.047 193.275 115.373 206.935 93.9701 204.861 80.4153 229.639 98.9731 245.421 136.623 209.166 145.782 240.743 0 0 98.6607 260.997 0 0 0 0 0 0 0 0 0 0
58 7 597.515 103.938 625.747 128.395 600.134 128.48 595.246 175.377 595.202 220.336 0 0 0 0 0 0 618.84 211.651 621.127 272.201 623.222 343.895 0 0 0 0 0 0
59 1 0 0 473.14 112.288 493.822 103.423 0 0 0 0 454.189 121.239 439.949 163.857 423.506 150.69 498.688 186.685 503.388 249.863 529.031 303.674 463.695 191.048 437.439 249.83 428.095 314.882
59 2 275.189 91.9374 258.764 103.821 246.961 103.498 287.054 121.663 301.135 92.2133 268.236 103.676 287.222 123.798 0 0 237.822 184.686 220.955 245.131 197.564 294.958 268.466 182.018 300.902 238.509 310.403 299.309
59 7 595.337 105.913 623.619 128.389 597.947 130.538 594.817 175.351 592.693 218.168 0 0 0 0 0 0 616.678 211.52 616.704 274.523 623.24 341.995 0 0 0 0 0 0
60 1 0 0 477.721 118.973 498.884 110.456 0 0 0 0 456.736 123.723 454.125 166.757 435.119 161.781 501.287 191.055 510.132 256.577 536.319 319.619 468.234 191.465 437.66 256.326 425.995 314.92
60 2 284.309 92.302 258.693 107.757 246.771 107.752 287.016 126.054 294.357 99.0655 268.295 105.776 289.598 127.83 310.547 118.943 237.673 191.211 218.959 247.85 193.426 299.262 268.396 186.84 303.63 238.809 312.696 301.739
60 9 0 0 477.721 118.973 498.884 110.456 0 0 0 0 456.736 123.723 454.125 166.757 435.119 161.781 501.287 191.055 510.132 256.577 536.319 319.619 468.234 191.465 437.66 256.326 425.995 314.92
61 1 0 0 482.519 121.395 503.686 115.009 0 0 0 0 463.29 123.949 463.35 168.661 435.445 166.431 505.935 195.833 513.185 265.442 538.751 325.99 473.02 200.059 440.22 258.938 428.214 317.467
61 2 284.652 92.1072 258.554 105.913 246.775 107.809 282.123 130.397 310.405 121.476 268.179 105.714 286.847 130.375 308.287 121.91 237.728 191.287 218.871 252.037 197.442 299.31 268.318 186.936 305.881 238.55 313.16 299.149
61 5 117.795 195.673 119.942 211.62 96.7187 211.36 89.2786 236.399 103.326 247.513 139.083 211.791 146.268 242.971 115.338 247.4 105.622 260.904 0 0 0 0 0 0 0 0 0 0
61 7 592.854 109.948 623.343 128.449 597.45 130.789 588.435 177.801 588.387 218.131 0 0 0 0 0 0 614.217 213.768 616.312 281.024 623.691 344.027 0 0 0 0 0 0
62 1 0 0 489.327 121.7 510.233 119.252 0 0 0 0 466.149 123.875 472.531 164.264 447.351 172.842 515.271 202.465 520.03 271.858 541.107 328.686 482.194 202.53 447.482 260.942 430.743 319.597
62 2 284.499 89.9523 258.791 105.873 246.927 107.827 277.524 132.86 312.544 121.311 268.469 105.693 284.818 128.252 312.877 121.607 240.118 191.409 221.217 251.825 199.947 299.041 270.79 186.853 308.486 236.311 315.545 301.512
62 5 118.09 193.411 122.362 211.211 101.301 209.252 91.9947 236.462 99.0592 247.622 141.219 211.297 148.399 240.918 115.457 247.364 105.778 260.917 0 0 0 0 134.217 258.913 0 0 0 0
62 7 592.9 109.864 623.41 130.261 597.557 132.698 588.349 175.75 588.23 218.002 0 0 0 0 0 0 614.152 215.882 619.004 301.397 626.063 346.66 0 0 0 0 0 0
63 1 0 0 494.002 119.532 513.22 118.877 0 0 0 0 473.145 121.713 477.718 155.228 456.525 170.861 519.945 198.06 522.624 265.529 541.18 319.647 485.017 200.355 456.399 260.983 435.22 317.167
63 2 287.383 87.7395 261.351 103.718 249.208 103.847 275.187 134.76 303.352 118.944 275.181 103.665 287.108 128.255 301.145 119.437 244.691 188.846 223.626 253.894 200.296 301.404 275.212 184.532 315.128 238.274 319.883 301.402
63 5 124.611 191.109 124.865 209.529 103.486 209.129 96.1659 238.398 105.57 249.918 146.024 211.482 152.482 245.161 117.761 249.981 108.06 260.956 0 0 0 0 136.589 263.302 0 0 0 0
63 7 594.865 109.844 623.66 130.443 597.977 132.768 592.688 175.751 588.408 217.993 0 0 0 0 0 0 614.259 218.002 620.986 290.232 0 0 0 0 0 0 0 0
64 1 0 0 498.85 114.795 519.73 112.809 524.838 152.987 0 0 477.775 116.912 482.591 146.248 463.479 163.932 522.496 193.696 527.034 262.899 545.747 328.357 491.588 193.645 465.788 256.698 440.183 310.339
64 2 296.223 87.6815 265.79 103.439 249.492 103.503 277.503 130.799 296.489 110.01 277.891 103.598 293.837 127.968 315.426 118.948 247.008 184.751 228.041 252.047 202.297 301.469 277.541 184.362 315.337 236.33 324.573 296.948
64 5 127.472 191.047 127.026 209.261 105.944 208.838 96.498 236.386 108.163 252.004 146.269 211.224 153.148 245.032 0 0 110.516 260.917 0 0 0 0 136.792 260.997 0 0 0 0
64 7 0 0 498.85 114.795 519.73 112.809 524.838 152.987 0 0 477.775 116.912 482.591 146.248 463.479 163.932 522.496 193.696 527.034 262.899 545.747 328.357 491.588 193.645 465.788 256.698 440.183 310.339
65 1 0 0 501.194 112.228 522.474 110.37 529.458 148.419 0 0 480.01 110.485 484.787 137.4 466.2 164.19 524.883 188.979 531.617 260.955 548.154 326.165 491.855 191.336 472.702 256.382 449.65 308.329
65 2 296.447 87.8097 268.065 103.662 253.979 103.753 280.188 130.726 324.596 116.911 280.177 103.759 296.642 125.95 331.582 112.694 249.458 189.039 230.525 253.869 204.908 299.259 280.028 184.521 315.519 236.303 333.927 299.293
65 5 127.48 191.101 129.445 207.016 108.328 206.871 98.5816 236.326 110.67 254.113 148.443 209.018 155.498 243.012 0 0 115.054 256.644 0 0 0 0 141.193 256.482 0 0 0 0
65 9 595.235 109.995 623.86 130.787 600.066 132.976 595.013 175.882 585.904 220.465 0 0 0 0 0 0 614.321 218.401 623.571 288 0 0 0 0 0 0 0 0
66 1 0 0 503.756 107.941 522.657 105.906 536.552 148.551 0 0 482.579 108.008 484.884 134.9 475.161 146.143 529.073 186.661 534.251 258.753 550.255 328.7 493.996 186.726 473.183 256.791 461.025 310.836
66 2 303.128 85.6607 270.73 103.752 256.662 103.94 284.416 132.776 293.853 103.715 284.575 103.682 310.436 121.571 334.173 117.033 253.995 186.732 230.954 251.905 208.91 299.303 284.559 184.359 315.19 236.145 341.162 299.135
66 9 595.219 110.073 623.596 132.842 598.112 136.889 592.704 179.965 585.473 220.621 0 0 0 0 0 0 613.835 218.388 623.46 292.465 626.142 346.807 0 0 0 0 0 0
67 1 0 0 503.916 103.446 526.826 103.446 541.57 144.007 0 0 484.779 101.538 487.099 130.423 477.613 146.453 529.339 182.336 538.541 263.014 550.895 328.449 494.374 182.238 477.673 256.511 473.137 315.065
67 2 305.873 85.6916 275.441 103.788 259.181 105.851 284.702 130.786 296.783 107.981 289.369 103.761 313.193 123.699 338.731 119.113 256.505 191.134 235.115 249.965 206.992 301.828 287.237 184.578 321.977 247.359 343.937 297.081
67 5 134.363 188.778 133.692 207.016 112.825 208.837 101.205 236.472 113.007 254.024 152.921 206.909 157.691 240.75 0 0 117.856 256.651 0 0 0 0 146.032 256.4 0 0 0 0
67 9 595.384 110.424 623.618 134.801 598.1 137.084 590.694 180.019 581.407 220.461 0 0 0 0 0 0 614.107 220.499 623.515 288.078 0 0 0 0 0 0 0 0
68 1 0 0 505.805 101.432 526.951 100.946 545.88 143.914 0 0 485.012 103.32 485.076 136.862 472.63 141.956 529.635 179.95 538.489 256.278 552.988 319.487 498.634 177.788 484.842 245.332 0 0
68 2 310.52 91.9044 282.224 107.817 265.818 107.955 287.35 132.746 298.967 110.228 296.737 107.91 322.194 127.873 346.038 121.246 261.243 193.52 237.25 254.241 209.069 301.751 293.993 191.38 324.842 249.703 350.64 301.392
68 5 136.143 188.799 134.164 208.896 114.961 209.083 101.336 238.492 115.118 254.326 155.037 206.882 161.923 238.59 157.826 258.929 122.293 258.806 0 0 0 0 148.346 256.645 0 0 0 0
68 9 595.281 110.569 625.66 137.044 600 137.39 588.706 182.14 579.181 220.537 0 0 0 0 0 0 614.14 220.55 623.467 290.201 0 0 0 0 0 0 0 0
69 1 0 0 508.238 103.681 529.205 101.468 548.37 144.045 0 0 487.303 105.798 485.108 139.751 468.351 148.279 531.682 182.293 538.751 254.365 555.124 323.901 500.775 182.146 491.375 254.121 487.18 319.518
69 2 313.091 92.0317 287.252 110.177 270.515 110.135 289.426 137.071 305.722 112.304 305.753 110.296 331.675 127.931 352.993 121.415 265.847 193.482 239.807 252.026 209.531 301.688 296.892 193.375 327.235 247.69 352.693 301.722
69 5 136.429 188.825 134.264 209.004 115.035 209.036 103.343 238.482 115.346 256.338 155.168 207.052 162.036 242.773 0 0 122.31 260.871 0 0 0 0 148.39 258.707 0 0 0 0
69 9 594.979 112.538 623.786 137.353 599.985 137.441 588.47 182.143 579.093 220.307 0 0 0 0 0 0 614.18 224.944 623.654 288.041 0 0 0 0 0 0 0 0
70 1 0 0 510.835 110.023 532.062 107.78 548.429 148.516 0 0 489.324 112.242 482.631 148.473 466.208 150.714 531.837 186.692 538.77 258.677 557.184 326.029 500.896 184.677 493.875 263.117 494.007 319.567
70 2 319.799 92.012 293.866 110.12 275.293 109.988 287.291 139.734 312.592 105.959 310.387 110.081 336.545 125.992 353.191 119.361 270.557 191.162 242.536 247.537 211.633 299.451 303.344 191.352 334.206 253.941 353.143 305.93
70 5 134.342 188.871 134.029 209.098 115.016 209.131 101.188 238.67 115.439 254.501 153.163 208.901 159.999 238.816 155.585 260.94 122.265 258.85 0 0 0 0 148.271 258.84 0 0 0 0
70 7 590.833 114.797 623.119 139.407 597.59 139.768 587.897 182.244 578.727 218.054 0 0 0 0 0 0 609.449 227.193 623.355 296.768 0 0 0 0 0 0 0 0
71 1 0 0 510.905 114.79 532.122 112.469 545.949 155.001 0 0 489.238 116.961 477.863 157.531 0 0 532 193.452 538.729 265.45 555.086 328.385 500.752 193.335 493.848 265.39 503.56 326.374
71 2 324.859 92.0558 296.483 109.902 277.932 108.046 287.277 139.813 306.275 121.256 315.421 109.941 343.459 128.076 324.627 110.45 275.114 191.358 242.583 254.031 211.84 301.668 308.264 191.414 336.431 249.789 353.277 308.098
71 5 134.424 188.848 131.679 209.034 112.784 209.155 98.9334 238.696 115.297 254.492 150.6 208.866 157.832 240.825 159.862 258.815 117.878 258.7 0 0 0 0 146.049 258.69 0 0 0 0
71 7 588.592 116.882 620.948 139.867 595.424 141.923 585.871 184.266 576.33 220.334 0 0 0 0 0 0 607.153 227.357 623.703 299.033 0 0 0 0 0 0 0 0
72 1 0 0 510.493 121.566 531.933 119.401 541.13 164.159 0 0 487.082 121.877 475.559 163.85 458.841 157.711 532.014 202.716 538.773 274.306 553.103 335.311 500.919 206.838 493.933 272.252 510.298 335.445
72 2 324.44 89.8353 298.785 105.839 280.042 106.001 287.412 139.63 308.215 116.784 317.841 105.843 350.267 127.955 352.842 119.346 275.463 189.038 244.558 254.216 218.491 301.67 310.528 190.94 336.417 251.881 352.861 308.174
72 5 127.376 188.854 129.423 209.064 108.414 208.964 96.4378 236.509 114.87 254.359 146.325 209.047 155.355 240.756 152.674 261.013 115.398 260.979 0 0 0 0 143.487 260.873 0 0 0 0
72 7 586.044 119.266 614.313 145.949 590.594 146.324 581.153 184.863 569.828 224.98 0 0 0 0 0 0 604.907 231.72 621.091 299.3 0 0 0 0 0 0 0 0
73 1 0 0 510.248 128.457 531.816 128.256 538.463 170.897 0 0 487.107 130.452 470.463 166.55 0 0 532.045 211.76 538.522 278.996 550.962 343.959 500.892 218.084 498.747 278.811 510.532 341.957
73 2 324.487 85.4226 298.986 103.843 282.181 105.778 293.827 137.472 312.861 107.94 319.912 103.785 350.566 128.005 352.904 123.888 277.749 184.572 249.468 243.038 225.791 299.38 312.517 184.655 334.397 249.702 350.569 308.184
73 7 581.162 121.265 611.67 146.45 587.926 148.527 578.49 189.052 566.626 229.363 0 0 0 0 0 0 602.349 236.165 618.833 312.78 0 0 0 0 0 0 0 0
74 1 0 0 505.862 130.853 529.125 130.59 0 0 0 0 484.851 132.955 463.823 170.839 453.996 157.365 529.679 213.762 534.272 280.907 550.487 344.185 500.789 218.101 496.434 281.206 510.474 346.304
74 2 322.455 78.8394 303.146 103.853 284.246 104.007 296.272 136.867 312.918 107.967 322.448 103.853 352.779 130.468 362.665 121.288 277.972 184.577 249.383 249.728 237.654 294.98 312.978 184.536 336.693 247.724 350.751 303.817
74 5 124.742 188.833 124.749 209.571 105.43 209.49 91.9295 238.85 108.521 254.055 143.683 211.225 152.575 244.925 145.898 261.034 110.559 263.111 0 0 0 0 138.858 263.229 0 0 0 0
74 7 578.558 123.818 607.096 148.935 585.507 148.933 574.124 193.338 560.218 229.417 626.419 148.666 0 0 0 0 597.382 236.451 611.825 308.104 0 0 626.372 238.406 619.03 308.054 0 0
75 1 0 0 503.849 130.39 529.18 130.507 529.509 168.907 0 0 482.568 130.572 463.331 166.788 453.868 150.68 526.996 211.609 531.781 276.79 548.388 343.877 494.077 213.713 491.911 274.839 505.857 339.824
75 2 324.53 83.3487 303.294 105.934 284.548 105.998 300.999 132.784 313.06 105.671 322.273 107.877 350.789 130.591 367.065 128.015 282.414 186.855 253.881 254.259 247.046 301.523 315.359 184.583 341.374 245.367 352.836 301.557
75 7 578.658 125.933 604.48 150.804 581.348 153.033 571.739 193.653 557.615 231.959 623.571 150.712 0 0 0 0 590.73 233.866 604.687 301.708 0 0 623.394 229.675 613.75 301.628 0 0
76 1 0 0 501.004 121.833 520.243 121.469 526.986 159.9 0 0 477.785 123.833 459.044 162.029 449.357 141.674 520.245 200.417 527.104 272.334 545.594 337.409 489.488 202.565 482.576 274.266 498.616 335.439
76 2 322.241 90.0161 301.151 107.873 284.55 107.853 298.783 130.344 312.97 107.866 322.003 110.003 350.512 130.709 369.386 128.409 284.553 184.826 263.569 240.883 247.232 301.486 315.584 186.704 343.932 243.013 353.191 296.95
76 5 120.119 188.753 119.984 209.17 99.0168 209.336 89.469 238.496 105.949 254.352 138.793 209.018 145.955 242.8 143.507 258.951 108.027 258.763 0 0 0 0 134.139 258.779 0 0 0 0
76 7 573.996 128.019 597.823 152.828 578.729 155.055 569.27 195.718 555.176 236.29 616.722 150.689 0 0 0 0 586.124 233.951 597.653 305.893 0 0 614.283 234.024 607.23 303.844 0 0
77 1 0 0 494.327 118.946 517.481 116.994 522.711 155.006 519.649 168.963 473.139 119.158 454.269 157.314 446.863 134.902 515.461 193.563 520.301 267.817 538.872 335.045 484.72 195.669 475.554 267.844 0 0
77 2 322.19 92.3132 303.199 109.939 284.584 110.093 289.647 130.559 306.271 116.791 322.334 109.919 350.471 130.365 353.02 130.558 284.915 193.319 261.413 254.211 246.709 306.06 319.866 191.137 343.932 242.895 360.014 301.372
77 5 117.668 190.789 117.386 209.371 96.6696 209.488 87.2103 238.797 101.348 256.378 136.27 209.158 143.269 238.586 143.177 260.989 105.903 260.909 0 0 0 0 131.567 258.798 0 0 0 0
77 7 576.553 130.392 594.934 154.827 569.845 155.324 564.753 195.72 550.636 236.405 614.308 152.754 0 0 0 0 578.854 234.012 585.927 305.893 611.65 348.944 609.507 236.084 602.246 305.901 540.777 339.825
78 1 0 0 489.44 114.694 510.76 112.719 519.576 148.639 513.068 166.801 466.315 114.925 446.77 153.029 435.316 127.992 510.45 191.397 515.266 265.661 531.732 335.002 475.648 193.766 465.797 263.233 468.29 317.222
78 2 324.656 94.4453 303.664 110.165 284.891 110.414 282.159 137.204 308.207 112.608 324.606 110.133 355.412 130.463 331.807 112.446 286.873 191.333 259.25 254.27 242.395 301.725 322.49 191.058 343.801 244.987 367.021 301.383
78 5 115.171 190.921 112.839 211.263 91.9555 211.516 80.3996 242.903 96.4636 256.8 131.52 209.439 138.991 240.969 138.793 260.945 103.588 263.031 0 0 0 0 129.47 258.907 0 0 0 0
78 7 560.074 128.145 588.066 154.991 566.838 155.263 560.304 197.793 548.194 238.656 607.341 154.972 623.814 206.793 623.536 249.852 571.991 238.759 576.665 308.296 0 0 604.458 238.684 597.955 308.157 0 0
79 1 0 0 484.683 112.489 508.3 110.447 512.694 153.02 0 0 463.471 112.942 437.882 148.706 432.768 130.296 503.888 191.22 508.31 263.36 526.898 332.858 472.545 191.39 449.612 256.763 463.038 326.212
79 2 329.459 96.8023 308.455 112.483 287.281 112.822 268.208 143.726 284.434 121.584 331.53 110.482 362.66 121.407 334.25 108.022 289.633 193.428 261.178 254.167 240.212 299.235 327.218 195.69 350.873 254.206 376.362 305.972
79 7 555.305 126.08 581.161 153.051 560.227 155.136 557.281 202.436 545.923 245.125 602.167 153.037 616.275 202.307 611.808 245.372 566.837 242.952 567.201 306.032 599.962 344.404 595.187 242.99 595.048 305.954 0 0
80 1 0 0 480.041 112.593 501.277 110.413 0 0 0 0 456.874 114.661 430.575 146.263 425.857 119.289 500.939 191.24 503.697 263.195 522.263 332.932 465.66 191.059 444.888 262.983 449.414 328.508
80 2 333.994 96.8501 315.511 112.866 294.161 116.87 265.95 145.87 277.897 128.234 340.919 112.671 362.656 112.523 0 0 296.28 186.897 268.376 238.337 244.515 290.451 329.471 191.267 343.849 238.684 0 0
80 7 557.628 128.092 576.18 150.989 555.208 154.905 550.811 202.35 545.734 240.79 595.394 150.933 607.091 206.896 604.287 249.788 557.66 238.748 555.307 301.757 588.318 346.532 588.496 243.023 592.922 310.446 0 0
81 1 541.158 126.004 569.53 150.728 550.652 150.976 550.449 195.747 0 0 588.475 150.823 597.698 200.289 590.65 245.143 552.889 238.416 545.691 299.493 585.667 351.204 581.276 238.521 590.61 308.178 0 0
81 2 334.447 100.786 321.914 112.712 296.809 114.897 272.777 144.081 286.825 123.876 341.388 112.332 374.266 118.768 0 0 298.828 188.946 265.742 251.906 239.782 296.837 334.232 191.362 350.383 244.922 364.762 283.654
81 5 107.906 190.971 106.159 211.506 86.7961 211.546 75.3654 242.91 89.5469 256.701 126.934 211.442 134.211 245.288 129.514 263.307 89.6717 265.324 0 0 0 0 119.979 265.402 0 0 0 0
81 7 541.158 126.004 569.53 150.728 550.652 150.976 550.449 195.747 0 0 588.475 150.823 597.698 200.289 590.65 245.143 552.889 238.416 545.691 299.493 585.667 351.204 581.276 238.521 590.61 308.178 0 0
82 1 0 0 472.577 119.354 491.929 116.979 0 0 0 0 447.31 121.532 418.716 141.826 421.111 112.559 491.634 197.858 494.14 265.548 512.729 332.939 456.551 193.775 428.083 269.946 411.969 335.037
82 2 338.627 100.758 324.908 112.831 303.682 112.889 275.544 145.969 294.114 128.456 345.985 112.881 381.089 118.978 0 0 303.624 189.02 267.945 249.682 240.135 299.15 338.731 191.406 348.052 245.116 362.575 280.998
82 7 536.423 128.088 564.647 150.879 545.795 152.924 0 0 0 0 583.489 150.981 588.569 204.676 578.564 240.85 548.486 236.268 536.477 301.274 0 0 576.489 238.547 588.436 308.25 0 0
83 1 0 0 465.9 121.81 489.147 119.319 0 0 0 0 444.425 127.891 416.14 139.83 421.17 112.445 485.134 200.314 493.907 271.959 512.757 339.854 453.845 200.068 421.327 269.818 397.904 330.782
83 2 345.811 96.7231 331.769 112.474 312.633 112.322 284.73 143.837 303.301 128.115 350.724 112.7 383.454 119.521 0 0 310.415 188.891 272.85 245.337 251.841 296.873 346.086 191.21 352.941 245.015 360.168 281.373
83 7 534.104 128.248 557.823 150.918 541.242 153.05 0 0 0 0 576.466 152.752 583.325 200.436 567.175 240.867 545.865 238.406 531.83 299.391 0 0 574.145 238.428 585.872 308.318 0 0
84 1 0 0 463.537 130.685 479.903 128.219 0 0 0 0 444.601 134.879 0 0 0 0 482.347 213.741 491.609 276.743 513.003 344.076 456.331 211.5 418.846 272.054 385.918 334.984
84 2 0 0 463.537 130.685 479.903 128.219 0 0 0 0 444.601 134.879 0 0 0 0 482.347 213.741 491.609 276.743 513.003 344.076 456.331 211.5 418.846 272.054 385.918 334.984
84 5 105.588 191.267 103.497 211.247 82.4046 211.457 75.3087 242.841 87.0903 256.283 122.309 209.436 129.564 244.957 129.489 263.034 89.3938 261.056 0 0 0 0 117.715 260.995 0 0 0 0
84 7 531.536 127.951 552.902 154.905 536.449 155.205 0 0 0 0 569.354 154.823 576.03 202.396 555.155 240.791 538.784 238.666 526.851 303.912 0 0 571.677 242.862 585.829 314.967 0 0
85 1 0 0 456.346 132.85 477.826 130.408 0 0 0 0 435.017 137.229 0 0 0 0 481.994 213.827 485.08 274.449 0 0 444.717 211.513 411.73 272.426 374.284 335.013
85 2 352.678 92.2587 340.982 105.802 319.983 105.741 294.267 137.48 308.241 121.527 362.246 107.89 400.202 143.929 407.091 128.232 315.655 182.235 293.797 225.033 282.383 283.802 350.887 184.366 360.137 238.5 362.438 281.178
85 5 105.423 191.117 103.522 209.537 82.5766 211.344 75.2954 240.751 87.1986 256.26 122.234 209.416 129.463 245.039 129.385 263.081 89.3799 260.831 0 0 0 0 117.425 260.931 0 0 0 0
85 7 519.672 128.376 548.424 155.126 532.089 155.066 0 0 0 0 562.456 155.273 567.296 202.814 541.467 238.637 534.129 242.94 519.975 308.382 517.448 346.6 566.801 240.765 579.266 310.622 0 0
86 1 0 0 449.495 136.858 473.024 132.805 0 0 0 0 425.815 139.389 0 0 0 0 475.386 218.098 484.452 274.714 503.922 323.867 438.029 218.191 406.882 274.77 371.782 337.406
86 2 357.409 89.9039 343.368 103.895 322.013 105.793 301.203 130.926 315.559 110.39 366.831 105.858 397.329 150.695 402.484 130.635 322.235 180.074 296.583 231.855 298.755 279.024 355.242 182.272 364.721 236.067 371.868 283.763
86 5 105.405 191.156 103.503 211.375 82.4856 211.396 75.3054 240.757 87.1094 256.344 122.301 211.305 129.619 245.262 129.43 263.205 89.2967 258.957 0 0 0 0 117.424 263.005 0 0 0 0
86 7 512.978 132.741 541.487 157.278 529.278 157.449 0 0 0 0 557.382 155.509 560.303 202.577 534.15 238.251 529.166 249.805 515.282 317.3 0 0 560.092 247.408 578.963 312.847 0 0
87 1 0 0 442.137 137.193 463.766 134.894 0 0 0 0 416.63 139.572 0 0 0 0 466.18 218.117 482.452 274.672 0 0 435.024 220.431 400.085 278.977 369.736 341.79
87 2 0 0 442.137 137.193 463.766 134.894 0 0 0 0 416.63 139.572 0 0 0 0 466.18 218.117 482.452 274.672 0 0 435.024 220.431 400.085 278.977 369.736 341.79
87 5 105.641 191.285 103.585 209.542 84.5107 211.387 77.2654 238.624 87.1721 256.227 122.307 209.382 131.475 245.23 129.524 263.186 89.3232 258.773 0 0 0 0 117.571 260.98 0 0 0 0
87 7 506.021 137.012 538.589 157.675 522.625 157.819 0 0 0 0 550.761 157.711 550.904 209.119 522.478 238.529 529.032 251.903 512.73 314.819 0 0 557.431 247.564 576.524 317.032 0 0
88 1 500.93 137.107 531.632 159.765 515.38 157.808 0 0 0 0 547.881 161.791 543.62 213.822 512.834 240.768 522.413 254.324 503.775 314.925 369.026 344.225 552.875 254.019 571.768 317.282 0 0
88 2 357.561 85.6833 350.783 103.559 329.325 103.244 310.542 123.713 324.559 101.175 374.245 105.923 385.71 146.293 390.599 137.129 331.656 177.881 315.547 240.838 331.517 274.749 362.602 179.92 369.283 247.671 0 0
88 5 105.807 191.387 105.506 211.355 84.5932 211.47 77.4496 238.881 89.2219 254.279 124.352 211.265 131.625 245.32 129.442 263.143 89.7419 258.813 0 0 0 0 117.873 260.935 0 0 0 0
88 7 500.93 137.107 531.632 159.765 515.38 157.808 0 0 0 0 547.881 161.791 543.62 213.822 512.834 240.768 522.413 254.324 503.775 314.925 369.026 344.225 552.875 254.019 571.768 317.282 0 0
89 1 0 0 426.136 134.976 447.364 130.646 0 0 0 0 397.611 137.475 390.42 139.671 0 0 453.991 218.366 473.131 274.51 0 0 416.523 216.061 390.47 278.86 369.422 341.999
89 2 359.55 85.603 352.921 101.508 331.76 101.518 315.239 121.745 329.509 94.6462 376.385 103.332 402.481 94.662 371.569 85.9294 334.075 179.994 327.03 240.836 343.595 276.75 364.925 182.211 369.283 242.832 0 0
89 5 105.982 191.477 105.888 211.748 84.6253 211.664 77.2865 240.967 89.5315 254.227 124.879 211.777 133.77 249.725 0 0 91.7821 260.993 0 0 0 0 120.033 263.194 0 0 0 0
89 7 494.365 139.321 522.737 163.894 510.169 164.009 0 0 0 0 540.917 161.979 541.195 209.092 510.552 236.331 515.507 249.765 500.846 319.487 0 0 547.983 245.298 567.028 317.122 0 0
90 1 0 0 418.614 130.875 437.692 130.274 453.957 148.337 0 0 392.962 132.849 0 0 0 0 444.887 213.748 465.864 276.935 369.053 346.526 406.918 211.602 387.802 276.944 369.533 343.924
90 2 359.864 85.7018 353.21 101.228 331.688 101.534 322.252 121.436 338.756 94.7258 378.72 98.9986 418.876 92.3056 0 0 336.625 182.202 336.436 245.038 353.026 283.759 369.361 184.341 371.679 244.939 0 0
90 5 106.098 191.587 106.128 211.463 86.8629 211.514 77.3789 240.929 91.7222 254.258 126.812 211.468 134.002 247.34 131.587 263.401 91.7175 263.012 0 0 0 0 120.1 263.291 0 0 0 0
90 7 484.965 139.407 519.88 161.958 503.915 164.128 0 0 0 0 532.043 159.901 531.899 209.269 503.386 238.912 510.317 254.108 494.302 317.358 0 0 538.828 249.797 560.18 317.395 0 0
91 1 482.045 139.621 512.795 163.843 498.791 164.252 0 0 0 0 527.054 161.922 529.343 207.06 500.907 240.779 501.038 254.343 487.115 323.993 0 0 531.99 251.976 548.394 319.328 0 0
91 2 359.614 85.6873 357.437 101.253 333.847 103.289 322.462 121.815 334.068 101.207 378.98 98.9785 416.502 92.0814 418.729 92.3059 340.928 181.961 341.177 244.958 360.143 290.142 371.791 182.382 383.674 276.884 371.864 337.601
91 5 107.966 193.181 107.944 211.612 86.8232 211.582 77.4412 242.865 91.7956 254.501 127.094 211.761 134.069 247.553 0 0 91.7777 263.164 0 0 0 0 119.998 263.41 0 0 0 0
91 7 482.045 139.621 512.795 163.843 498.791 164.252 0 0 0 0 527.054 161.922 529.343 207.06 500.907 240.779 501.038 254.343 487.115 323.993 0 0 531.99 251.976 548.394 319.328 0 0
92 1 0 0 407.08 123.911 423.417 121.784 447.363 132.855 428.481 110.097 387.78 123.656 381.534 157.724 376.511 148.267 435.207 211.537 451.762 272.348 369.727 344.071 397.893 209.213 374.248 245.233 0 0
92 2 0 0 407.08 123.911 423.417 121.784 447.363 132.855 428.481 110.097 387.78 123.656 381.534 157.724 376.511 148.267 435.207 211.537 451.762 272.348 369.727 344.071 397.893 209.213 374.248 245.233 0 0
92 5 108.124 193.203 108.215 211.508 87.0993 211.511 77.36 241.01 91.7344 254.411 127.097 211.597 134.302 245.414 0 0 93.9965 263.087 0 0 0 0 122.164 263.395 0 0 0 0
92 7 475.176 139.273 503.947 161.872 493.91 161.939 0 0 0 0 519.623 159.823 524.623 206.888 498.735 243.018 493.929 249.85 481.922 321.872 0 0 522.237 249.842 534.131 317.277 0 0
93 1 0 0 395.365 125.91 416.197 121.386 446.972 130.348 425.702 105.864 376.474 128.066 376.28 157.774 0 0 428.158 207.042 446.883 274.651 437.979 337.409 0 0 0 0 0 0
93 2 0 0 395.365 125.91 416.197 121.386 446.972 130.348 425.702 105.864 376.474 128.066 376.28 157.774 0 0 428.158 207.042 446.883 274.651 437.979 337.409 0 0 0 0 0 0
93 5 108.28 193.44 108.349 211.751 87.0771 211.82 77.4962 245.001 91.7068 254.409 127.355 211.775 136.222 245.468 0 0 94.0083 263.281 0 0 0 0 122.233 265.477 0 0 0 0
93 7 0 0 395.365 125.91 416.197 121.386 446.972 130.348 425.702 105.864 376.474 128.066 376.28 157.774 0 0 428.158 207.042 446.883 274.651 437.979 337.409 0 0 0 0 0 0
94 1 0 0 388.018 128.051 409.599 121.439 442.348 125.984 421.106 101.307 362.446 137.218 362.594 161.966 0 0 423.308 209.082 437.569 274.38 418.869 335.251 383.455 211.544 383.53 276.737 371.79 339.914
94 2 0 0 388.018 128.051 409.599 121.439 442.348 125.984 421.106 101.307 362.446 137.218 362.594 161.966 0 0 423.308 209.082 437.569 274.38 418.869 335.251 383.455 211.544 383.53 276.737 371.79 339.914
94 5 108.438 193.522 108.461 211.668 89.1216 211.601 77.5498 243 91.7432 254.447 127.324 211.886 136.334 247.323 0 0 93.8992 263.129 0 0 0 0 122.195 265.385 0 0 0 0
94 7 465.788 137.411 498.724 157.908 486.997 157.646 0 0 0 0 508.261 159.861 512.8 209.33 494.4 249.687 484.954 247.599 475.212 317.291 371.506 346.301 510.314 247.792 508.109 319.358 555.291 348.958
95 1 0 0 383.603 125.906 406.802 119.502 439.903 128.328 419.049 101.444 362.351 132.788 357.653 166.629 0 0 416.245 206.968 428.179 276.648 400.079 335.305 378.807 204.835 378.924 274.281 371.604 337.503
95 5 108.398 193.791 108.727 211.666 89.5701 211.637 79.901 240.769 91.7911 256.344 127.505 211.769 136.283 245.497 127.246 260.839 96.3647 263.149 0 0 0 0 124.39 263.395 0 0 0 0
95 7 0 0 383.603 125.906 406.802 119.502 439.903 128.328 419.049 101.444 362.351 132.788 357.653 166.629 0 0 416.245 206.968 428.179 276.648 400.079 335.305 378.807 204.835 378.924 274.281 371.604 337.503
96 1 0 0 378.834 123.844 400.119 119.488 435.16 134.959 416.652 103.753 357.626 130.397 353.292 173.348 0 0 407.12 202.681 416.523 278.964 388.174 337.348 369.403 202.457 378.444 272.231 369.495 337.372
96 5 108.555 195.684 110.534 213.797 89.2197 213.696 77.7253 245.051 91.7561 258.837 129.569 213.976 136.699 247.558 0 0 94.1745 265.521 0 0 0 0 122.261 265.662 0 0 0 0
96 7 456.794 134.93 491.557 157.409 484.819 152.977 0 0 0 0 494.337 159.933 501.21 211.335 492.004 249.955 491.649 238.498 482.123 312.725 0 0 494.19 247.383 472.81 317.413 0 0
97 1 0 0 378.525 125.886 397.888 119.338 432.85 146.18 0 0 355.386 132.709 350.488 175.276 0 0 404.621 204.856 409.284 276.731 369.6 337.512 369.624 206.992 376.284 274.283 364.719 335.077
97 5 108.702 195.799 108.721 213.696 89.2253 211.896 79.7439 245.205 91.7282 260.857 129.491 213.862 136.732 247.535 134.199 263.341 96.2313 265.461 0 0 0 0 124.548 265.535 0 0 0 0
97 7 0 0 489.333 155.263 494.091 150.883 0 0 0 0 484.645 157.78 494.122 209.389 489.435 249.837 487.076 240.879 477.737 312.694 0 0 484.883 249.733 475.147 319.359 0 0
98 1 0 0 374.052 128.401 397.839 121.571 425.506 155.42 416.584 128.007 350.488 137.137 343.979 181.934 0 0 399.754 206.899 400.333 281.041 359.898 337.608 364.614 209.198 374.32 276.729 357.733 333.049
98 5 108.591 195.84 110.592 213.763 89.5482 213.738 79.976 245.209 93.9961 258.777 129.497 213.884 136.811 247.4 136.231 263.171 96.3331 265.317 0 0 0 0 124.517 265.386 0 0 0 0
98 7 0 0 484.869 155.175 491.616 148.61 463.712 220.464 449.529 244.96 477.871 159.762 487.101 209.353 482.057 254.161 484.772 247.542 472.876 317.106 0 0 482.306 254.071 473.185 319.429 0 0
99 1 0 0 374.091 132.833 400.144 128.418 416.497 166.523 0 0 350.237 139.438 338.89 182.251 0 0 390.81 213.658 387.838 290.072 350.527 339.9 360.026 213.763 371.688 278.992 352.91 343.905
99 5 108.521 195.846 110.678 213.89 89.704 213.943 82.3267 245.089 94.0705 258.707 129.515 213.967 136.819 247.715 136.267 265.329 96.573 265.384 0 0 0 0 124.516 265.451 0 0 0 0
99 7 0 0 482.149 155.019 487.076 148.559 0 0 0 0 473.099 157.741 482 209.488 477.579 254.311 494.076 238.484 472.844 314.907 0 0 477.74 251.9 475.106 319.518 0 0
100 1 0 0 371.69 139.62 399.784 137.398 407.2 182.142 0 0 346.072 143.807 334.127 184.864 353.095 182.356 381.544 222.713 376.382 296.789 343.684 346.26 353.009 218.268 376.32 281.235 350.621 344.417
100 5 108.661 195.939 110.627 215.785 89.5011 213.925 80.2294 245.362 96.1972 258.703 129.6 215.907 136.835 249.826 0 0 96.3949 265.368 0 0 0 0 124.49 265.551 0 0 0 0
100 7 0 0 475.63 154.95 484.987 148.805 0 0 0 0 465.768 157.606 473.081 209.482 472.832 254.093 491.796 238.72 475.362 317.23 0 0 470.61 249.673 444.885 317.019 0 0
101 1 378.681 91.9117 381.286 103.446 359.933 103.704 343.637 132.836 0 0 400.058 103.546 425.92 134.831 432.995 135.032 0 0 0 0 0 0 0 0 0 0 0 0
101 5 108.732 197.816 110.717 215.875 89.5905 215.774 80.3377 245.447 96.5363 258.722 131.53 215.849 136.891 249.675 136.846 263.303 96.5118 265.459 0 0 0 0 124.743 265.583 0 0 0 0
101 7 0 0 474.986 152.992 484.814 148.462 0 0 0 0 461.059 157.572 466.052 209.205 463.093 247.476 489.232 240.726 475.415 312.83 0 0 465.937 247.473 444.759 310.651 0 0
102 1 385.789 92.2095 385.744 109.896 359.981 107.979 350.709 130.712 0 0 407.342 109.85 430.681 137.305 425.812 132.882 0 0 0 0 0 0 409.363 184.581 411.919 240.769 0 0
102 2 385.789 92.2095 385.744 109.896 359.981 107.979 350.709 130.712 0 0 407.342 109.85 430.681 137.305 425.812 132.882 0 0 0 0 0 0 409.363 184.581 411.919 240.769 0 0
102 5 108.691 197.997 112.661 217.823 89.6363 215.85 84.5186 245.214 96.563 256.515 131.665 217.942 136.874 249.786 0 0 96.492 265.558 0 0 0 0 124.697 265.655 0 0 0 0
102 7 0 0 472.591 155.452 484.916 150.929 0 0 0 0 454.301 157.784 456.753 209.347 454.191 258.724 485.083 238.694 475.298 315.059 0 0 461.091 249.684 437.868 306.057 0 0
103 1 0 0 367.028 145.888 388.456 146.466 390.828 188.965 0 0 345.773 139.863 322.208 173.155 334.324 184.847 362.723 220.383 364.856 292.468 341.218 346.64 336.428 218.119 362.436 285.707 350.756 344.223
103 5 110.563 199.868 114.798 218.255 89.7717 217.83 86.7855 245.445 0 0 134.041 220.352 138.743 254.094 0 0 98.7497 267.882 0 0 0 0 126.995 270.083 0 0 0 0
103 7 0 0 466.272 157.348 487.172 157.274 0 0 0 0 447.261 157.747 451.56 209.414 444.446 252.044 484.598 242.864 475.07 317.379 0 0 456.341 247.7 435.216 303.866 0 0
104 1 0 0 367.014 137.443 388.133 139.445 390.41 184.536 362.409 177.708 343.717 132.914 315.657 162.033 334.11 186.786 360.157 218.006 359.704 290.147 341.146 344.313 331.818 211.525 352.798 281.059 348.228 341.85
104 5 108.707 199.951 115.071 218.334 89.8443 217.938 86.8381 247.286 98.7834 256.526 136.304 220.371 140.972 254.203 0 0 99.1122 269.977 0 0 0 0 129.419 272.17 0 0 0 0
104 7 0 0 465.863 157.701 487.269 157.763 487.175 202.528 0 0 444.462 159.787 440.163 211.332 437.426 249.895 484.426 242.971 472.77 319.599 0 0 453.961 249.657 428.233 310.431 0 0
105 1 0 0 362.779 130.49 387.866 130.652 390.519 175.665 0 0 343.336 127.977 312.765 154.868 331.914 175.347 359.831 209.189 350.613 283.741 340.949 344.337 331.637 202.372 343.758 274.376 348.049 337.709
105 2 397.276 89.938 400.372 105.799 385.781 103.591 0 0 0 0 419.094 108.098 0 0 0 0 0 0 0 0 0 0 409.46 175.621 390.403 247.348 388.479 299.248
105 5 108.466 200.029 114.998 217.996 91.8701 217.84 89.152 245.103 105.423 254.224 134.212 218.152 140.964 247.551 0 0 101.17 263.354 0 0 0 0 127.24 263.348 0 0 0 0
105 7 397.276 89.938 400.372 105.799 385.781 103.591 0 0 0 0 419.094 108.098 0 0 0 0 0 0 0 0 0 0 409.46 175.621 390.403 247.348 388.479 299.248
106 1 0 0 360.044 126.053 381.544 127.931 387.848 172.966 362.525 166.381 336.528 121.86 306.167 148.396 327.304 166.471 357.56 204.746 345.995 278.966 334.537 344.001 329.346 200.211 338.778 272.206 340.823 339.834
106 2 400.395 85.8095 400.306 103.276 381.44 103.275 0 0 0 0 423.401 103.585 0 0 0 0 0 0 0 0 0 0 409.402 175.581 390.939 233.824 402.41 290.113
106 5 108.5 199.905 115.069 215.78 93.9635 213.693 87.304 243.066 105.757 254.451 134.265 215.96 143.094 247.738 0 0 101.224 265.341 0 0 0 0 131.596 265.375 0 0 0 0
106 7 0 0 458.967 164.252 484.807 164.072 487.186 211.295 0 0 433.003 164.353 425.501 218.038 416.735 254.422 473.018 249.839 465.788 326.092 0 0 437.578 249.788 418.804 319.446 0 0
107 1 0 0 357.553 123.785 378.996 127.812 383.63 170.774 0 0 334.394 121.37 305.815 146.305 324.918 166.641 352.988 202.636 343.542 280.993 331.415 346.467 324.848 200.223 334.546 272.259 329.425 343.884
107 7 0 0 456.377 166.383 482.637 166.335 485.041 213.911 0 0 428.223 166.675 416.425 218.377 409.158 256.517 470.59 256.439 463.571 328.428 0 0 435.319 256.367 418.717 319.775 0 0
108 1 0 0 353.071 123.679 376.454 125.977 383.663 168.875 388.179 146.227 331.785 119.507 303.579 148.591 324.546 166.571 350.613 202.638 343.346 281.133 322.357 346.376 322.314 200.153 333.875 272.118 319.943 341.906
108 5 112.897 200.12 117.668 217.827 96.455 216.043 89.6008 247.268 105.845 254.14 136.858 215.938 146.094 247.361 0 0 105.685 265.404 0 0 0 0 0 0 0 0 0 0
108 7 0 0 454.356 166.448 482.564 166.569 487.123 216.037 0 0 425.868 166.487 409.764 220.326 404.546 263.036 468.467 258.817 463.534 328.289 0 0 433.006 258.673 418.534 323.891 0 0
109 1 0 0 350.673 125.939 372.028 128.06 381.572 170.854 390.695 148.431 329.175 121.808 303.22 154.886 322.42 164.402 346.096 207.023 341.339 281.141 312.945 344.302 320.06 202.354 325.123 272.383 305.731 330.82
109 2 414.114 85.4325 416.506 101.022 397.224 100.879 383.534 121.856 390.333 105.851 437.759 101.083 456.233 121.485 0 0 400.284 159.751 0 0 0 0 428.146 157.629 0 0 0 0
109 5 115.033 200.145 117.828 217.917 96.5747 217.876 89.6867 245.456 106.04 253.906 138.954 216.057 148.326 245.44 0 0 105.624 265.451 0 0 0 0 134.236 265.362 0 0 0 0
109 7 0 0 453.978 166.503 482.399 166.613 487.074 218.369 477.575 256.716 423.37 166.606 407.146 222.74 397.584 260.96 468.218 256.586 466.01 326.36 0 0 428.635 256.555 416.604 326.017 0 0
110 1 0 0 348.313 128.462 369.699 130.278 381.312 172.799 0 0 325.055 128.013 298.922 161.745 324.753 168.687 343.486 209.019 340.835 281.252 303.663 346.471 315.658 202.546 324.437 272.381 296.353 330.804
110 5 115.42 200.172 119.964 217.893 98.784 217.909 91.8579 245.349 108.139 253.973 140.951 216.041 152.469 245.306 0 0 105.844 263.36 0 0 0 0 0 0 0 0 0 0
110 7 0 0 451.78 164.421 482.266 166.382 487.146 218.413 479.771 258.809 419.249 164.223 404.476 218.067 399.9 254.028 468.196 254.194 470.473 326.01 0 0 428.364 251.983 418.674 321.734 0 0
111 1 0 0 345.919 132.987 366.908 136.957 378.847 175.408 0 0 325.044 130.788 298.977 164.418 0 0 340.907 211.683 334.064 289.862 301.153 346.748 315.066 209.006 315.744 278.97 284.822 330.838
111 5 117.63 200.065 122.242 218.155 98.8646 217.951 93.8805 247.36 108.528 253.934 143.464 218.105 152.49 247.537 117.759 253.984 108.168 265.74 0 0 0 0 0 0 0 0 0 0
111 7 0 0 451.526 163.912 482.044 164.136 487.239 218.094 484.515 256.486 419.046 161.992 399.912 215.974 390.447 254.414 468.203 249.83 472.63 321.731 0 0 428.437 249.774 418.88 319.524 0 0
112 1 0 0 341.297 139.57 362.146 141.829 378.431 182.083 388.141 157.383 322.489 137.544 301.162 172.837 322.232 175.709 336.601 220.576 327.213 296.952 296.587 349.052 312.604 215.88 310.594 283.53 282.234 335.251
112 5 117.965 200.067 122.224 218.13 98.8268 217.982 94.1516 247.545 110.652 254.16 143.492 217.979 152.616 247.316 115.444 254.027 108.282 265.624 0 0 0 0 0 0 0 0 0 0
112 7 0 0 449.461 159.923 482.013 162.038 489.367 218.137 489.185 256.592 418.888 159.685 399.655 211.713 388.333 254.092 468.386 247.398 472.618 310.545 0 0 428.315 245.356 421.371 310.731 0 0
113 1 0 0 340.862 141.88 357.517 145.919 374.185 184.386 390.428 168.928 322.545 139.464 300.97 175.633 0 0 334.075 218.12 327.124 292.71 296.833 348.932 312.649 213.801 308.333 285.857 277.923 339.702
113 5 117.671 200.116 122.383 218.147 98.9487 218.001 96.0801 247.499 110.739 254.466 143.708 218.058 152.598 247.791 0 0 108.139 265.601 0 0 0 0 0 0 0 0 0 0
113 7 0 0 449.432 157.612 481.969 159.656 491.777 213.734 494.211 254.353 418.83 157.384 397.509 209.234 388.369 247.789 468.497 245.331 475.023 317.384 0 0 428.02 245.262 421.226 317.17 0 0
114 1 0 0 338.745 141.796 355.442 145.922 371.577 184.493 388.26 166.557 321.885 139.366 298.782 175.587 0 0 331.498 217.986 324.514 292.649 296.614 346.916 306.156 211.704 313.027 281.148 280.129 337.853
114 5 117.413 200.134 122.21 215.983 99.2231 215.959 96.0969 245.412 110.718 254.525 143.279 213.955 152.653 245.437 115.454 254.49 108.224 265.411 0 0 0 0 0 0 0 0 0 0
114 7 0 0 447.489 157.483 482.017 159.723 494.291 211.674 496.644 254.298 418.725 155.47 397.533 208.989 388.291 247.407 470.501 247.395 473.157 315.025 0 0 425.989 245.18 421.315 315.012 0 0
115 1 0 0 336.605 139.55 355.307 139.911 367.118 182.247 385.861 164.284 317.906 137.352 296.681 173.026 0 0 324.937 220.706 324.992 290.291 296.83 346.783 303.456 216.043 312.84 283.361 286.984 333.066
115 5 115.332 199.956 124.264 215.939 101.237 213.991 96.1515 245.171 110.541 254.505 143.544 215.799 152.692 247.557 0 0 108.056 265.581 0 0 0 0 0 0 0 0 0 0
115 7 0 0 449.647 157.486 482.31 159.659 496.575 209.423 501.142 251.985 418.731 155.469 397.679 204.889 387.993 240.709 470.613 240.68 475.495 317.077 0 0 426.061 238.704 423.296 314.881 0 0
116 1 0 0 334.537 137.344 353.073 139.448 362.831 182.172 397.331 139.576 317.688 134.784 294.312 168.931 0 0 322.595 213.906 324.751 289.908 301.025 344.382 303.158 209.121 313.191 281.106 287.45 326.529
116 5 117.552 199.984 124.624 211.908 103.37 211.687 96.2445 240.987 110.624 256.249 143.741 213.834 152.827 247.57 117.631 256.359 108.246 265.365 0 0 0 0 0 0 0 0 0 0
116 7 0 0 451.762 157.596 482.49 159.879 500.991 211.702 503.496 254.068 418.849 155.479 397.884 206.82 390.661 243.085 470.647 245.129 482.211 321.852 0 0 428.107 245.136 425.529 312.813 0 0
117 1 0 0 334.517 136.868 352.796 137.406 362.456 179.765 397.747 137.221 319.774 130.658 294.283 166.825 0 0 322.196 211.576 324.579 287.998 298.997 346.372 303.229 204.864 315.054 281.177 296.394 335.206
117 5 120.231 200.161 126.82 215.824 105.428 211.931 96.4482 245.074 110.479 256.448 146.19 216.037 153.044 249.926 0 0 108.438 265.76 0 0 0 0 0 0 0 0 0 0
117 7 0 0 453.948 157.489 484.562 159.953 503.375 211.626 508.186 254.084 421.151 155.289 399.826 206.792 395.174 244.969 472.691 245.061 484.635 319.726 0 0 428.524 242.921 425.501 315.013 0 0
118 1 0 0 333.918 136.944 350.657 137.304 362.031 177.826 381.17 161.901 315.647 132.684 293.887 166.445 315.147 173.149 321.941 209.356 322.612 289.871 298.876 341.867 303.148 202.664 322.364 281.179 303.611 337.49
118 2 428.304 94.6585 435.496 107.882 416.521 103.636 388.535 110.161 400.137 114.93 456.536 107.867 454.052 128.247 421.135 121.354 0 0 0 0 0 0 0 0 0 0 0 0
118 5 122.219 199.83 126.996 211.756 106.023 211.71 98.5381 240.886 110.695 254.061 145.871 211.784 154.969 245.077 0 0 114.958 263.119 0 0 0 0 141.03 263.172 0 0 0 0
118 7 0 0 454.338 157.634 486.966 163.895 503.566 211.517 512.742 254.266 423.599 155.319 400.088 204.857 397.882 242.967 473.088 245.13 487.16 317.378 0 0 432.718 242.901 426.01 312.68 0 0
119 1 0 0 331.564 137.321 347.999 139.298 360.125 179.837 376.39 153.067 315.064 134.764 291.65 166.793 0 0 321.924 211.532 322.404 290.02 291.611 344.161 303.321 204.706 324.476 283.562 312.75 333.038
119 2 428.192 92.0729 437.718 105.733 423.39 103.725 390.669 109.907 409.396 114.776 456.237 105.812 449.629 128.381 425.65 121.652 0 0 0 0 0 0 0 0 0 0 0 0
119 5 118.095 193.669 127.076 211.415 106.059 211.231 96.6326 238.921 110.782 247.639 146.223 211.689 155.032 245.22 0 0 112.805 263.103 0 0 0 0 0 0 0 0 0 0
119 7 0 0 456.554 157.532 487.216 162.052 503.937 211.882 513.098 256.439 426.099 154.988 400.401 202.881 416.255 229.458 475.236 249.704 491.555 319.414 0 0 430.803 245.126 425.928 317.209 0 0
120 1 0 0 331.352 139.746 343.607 143.851 359.913 184.313 371.481 161.918 313.232 137.341 291.532 170.879 0 0 315.479 218.358 322.395 290.446 284.884 343.88 303.378 211.704 327.129 283.6 312.85 330.983
120 5 117.618 191.462 127.283 211.733 105.949 211.386 98.6846 242.777 0 0 148.459 213.952 155.263 247.684 0 0 112.982 265.45 0 0 0 0 0 0 0 0 0 0
120 7 0 0 461.01 157.709 491.505 163.853 505.848 213.733 515.364 258.77 428.659 155.115 406.668 202.696 409.251 240.763 473.123 242.947 491.424 319.718 0 0 434.857 238.598 430.567 312.736 0 0
121 1 357.624 137.045 324.714 144.043 340.806 146.501 359.518 184.659 369.493 164.005 312.492 139.856 287.223 175.566 0 0 315.308 220.462 322.398 294.781 280.04 343.942 301.175 211.613 324.679 290.375 310.613 334.923
121 5 117.909 191.441 127.435 211.796 105.956 211.535 98.5978 243.064 0 0 148.293 211.884 155.261 245.385 0 0 0 0 0 0 0 0 0 0 0 0 0 0
121 7 0 0 463.311 157.663 491.786 161.997 506.064 211.767 519.529 263.146 432.952 155.092 409.125 204.904 414.047 242.897 475.483 245.208 489.411 319.655 0 0 435.451 240.704 432.799 308.272 0 0
122 1 355.499 137.308 322.604 148.492 334.47 150.829 353.334 188.803 367.049 164.127 308.419 145.97 286.83 179.783 299.124 164.23 315.178 229.579 322.446 292.704 275.573 344.044 303.303 222.828 322.429 292.32 310.443 332.88
122 5 117.941 191.096 127.251 209.38 107.968 209.238 98.8395 240.734 115.1 247.84 148.257 211.404 155.067 245.265 0 0 114.971 263.095 0 0 0 0 0 0 0 0 0 0
122 7 0 0 465.739 157.695 494.506 163.844 510.223 213.867 519.925 263.445 435.471 155.087 416.213 206.918 418.707 243.041 482.147 245.12 500.927 314.964 0 0 437.848 240.891 435.05 310.774 0 0
123 1 353.002 139.424 321.916 148.625 332.042 152.837 350.625 191.021 362.716 168.718 305.982 146.043 284.66 177.748 298.923 164.166 312.815 231.749 315.359 292.648 272.956 344.341 303.562 222.772 331.602 281.449 308.331 330.8
123 5 122.27 188.988 127.262 209.354 105.998 209.065 98.6464 238.269 117.417 247.636 150.409 211.377 155.136 245.057 0 0 112.949 258.915 0 0 0 0 0 0 0 0 0 0
123 7 0 0 470.517 157.478 501.099 163.865 510.917 213.703 522.245 256.626 440.049 154.816 418.71 208.956 425.963 247.38 484.81 240.815 498.789 317.081 0 0 444.322 238.71 437.509 308.25 0 0
124 1 352.695 139.355 315.49 144.083 329.479 146.449 341.158 190.861 378.622 202.703 303.579 141.843 284.359 173.007 0 0 310.557 229.367 312.712 290.369 273.013 342.056 296.756 220.602 322.224 283.585 310.505 328.325
124 5 124.389 186.951 129.348 209.054 107.949 208.814 98.78 236.451 0 0 152.503 209.384 155.338 243.001 117.89 245.342 0 0 0 0 0 0 0 0 0 0 0 0
124 7 0 0 475.011 157.5 503.68 163.853 515.481 213.866 522.111 256.817 444.926 154.845 426.228 204.719 432.715 243.018 487.282 238.463 501.313 312.666 0 0 447.209 236 442.315 301.429 0 0
125 1 0 0 315.065 137.41 326.984 139.25 331.85 182.502 350.723 166.602 301.261 135.027 277.844 166.613 0 0 312.668 211.727 312.557 281.327 274.942 337.646 296.359 207.081 315.104 278.96 312.8 323.967
125 5 122.271 186.676 127.538 204.758 108.179 202.781 98.8761 235.928 117.54 242.987 150.44 206.947 155.129 240.782 0 0 112.965 256.602 0 0 0 0 0 0 0 0 0 0
125 7 0 0 479.873 157.326 510.32 161.783 520.124 215.805 522.731 256.719 447.461 152.929 428.614 206.857 435.549 243.064 494.286 238.346 508.104 312.725 0 0 453.691 236.172 444.787 301.587 0 0
126 1 0 0 312.938 130.719 324.751 132.964 324.501 175.582 343.603 166.271 300.99 128.336 275.487 161.867 0 0 305.77 209.385 310.612 276.712 272.978 335.188 293.963 206.858 315.117 272.364 312.97 319.558
126 5 122.309 184.418 129.519 202.714 108.2 202.376 98.9964 231.842 0 0 152.609 204.79 155.232 236.265 0 0 0 0 0 0 0 0 0 0 0 0 0 0
126 7 0 0 482.619 155.05 512.987 157.806 524.767 211.658 529.31 258.763 454.187 148.9 435.57 200.439 444.905 236.436 501.126 238.302 510.797 310.768 0 0 454.295 238.336 447.286 303.728 0 0
127 1 0 0 312.658 126.009 322.304 128.394 317.854 171.054 341.282 157.543 301.01 121.835 275.114 154.946 0 0 301.218 204.878 312.703 272.197 275.436 330.81 289.619 198.014 315.032 269.833 310.393 319.703
127 5 120.054 182.227 131.832 202.353 108.23 200.256 99.1019 234.01 0 0 152.605 202.663 155.577 235.983 0 0 0 0 0 0 0 0 0 0 0 0 0 0
127 7 0 0 489.46 154.845 520.175 157.779 529.599 211.524 531.806 254.419 458.9 148.484 444.436 202.505 449.599 229.603 505.898 238.552 513.234 314.86 0 0 460.953 236.252 447.387 310.347 0 0
128 1 0 0 312.586 121.843 322.039 125.908 315.525 166.907 343.338 155.295 301.102 119.545 274.862 150.749 296.475 157.348 296.443 204.816 308.465 272.366 277.678 328.623 289.385 200.185 312.972 267.915 303.11 321.897
128 5 122.294 184.275 131.785 200.546 108.505 200.221 101.258 231.709 115.433 244.903 152.807 202.456 155.445 233.987 0 0 115.269 253.984 0 0 0 0 0 0 0 0 0 0
128 7 0 0 493.869 150.858 522.335 155.491 534.121 209.407 534.069 249.947 463.739 148.584 447.402 200.196 0 0 510.478 236.304 517.44 317.212 0 0 465.736 236.137 454.071 308.141 0 0
129 1 0 0 310.345 121.957 319.916 125.874 315.135 166.889 341.142 155.107 298.791 121.325 270.714 152.722 0 0 296.284 202.567 306.29 274.699 284.523 326.503 284.788 195.87 306.129 272.057 296.237 326.115
129 5 122.251 182.388 131.721 200.217 108.62 198.005 103.289 227.298 117.721 238.66 152.624 200.489 155.416 236.235 0 0 115.123 251.837 0 0 0 0 0 0 0 0 0 0
129 7 0 0 498.68 148.916 529.361 154.827 539.054 209.006 541.008 256.43 468.211 148.275 451.688 199.929 0 0 513.176 238.493 519.771 312.872 0 0 470.406 238.501 456.403 303.718 0 0
130 1 0 0 306.275 125.906 315.549 127.897 315.082 170.914 341.061 154.923 296.712 121.926 270.814 155.005 0 0 294.227 202.677 303.525 276.797 284.386 332.977 287.091 198.084 308.373 272.25 284.775 326.209
130 5 122.286 182.35 131.803 200.071 110.602 197.802 103.429 227.047 117.875 238.851 152.627 200.333 155.451 236.05 0 0 115.457 251.888 0 0 0 0 0 0 0 0 0 0
130 7 0 0 501.341 148.785 531.944 153.077 541.585 204.87 543.568 254.056 473.142 146.098 456.274 195.828 456.353 226.998 519.63 236.164 519.993 312.719 0 0 472.773 236.264 456.531 301.377 0 0
131 1 0 0 306.09 128.448 313.253 130.558 315.667 173.25 341.216 155.179 296.562 125.901 270.773 157.45 285.038 150.728 293.859 209.131 303.307 278.781 279.968 335.165 284.669 202.518 305.908 274.409 277.477 326
131 5 122.256 182.209 133.804 200.093 110.611 197.843 105.604 227.208 119.902 238.581 152.86 200.178 155.642 233.932 0 0 117.581 251.867 0 0 0 0 0 0 0 0 0 0
131 7 0 0 505.828 148.56 538.393 152.886 547.985 202.8 550.273 254.131 475.349 146.291 461.05 195.917 0 0 522.465 229.482 522.755 303.793 0 0 475.396 229.503 461.157 294.698 440.193 330.98
