{
    "createTime": "Thu, 30 Jul 2020 17:35:15 GMT",
    "info": {
        "team1": {
            "name": "Team1",
            "members": [
                "playerid1"
            ]
        },
        "team2": {
            "name": "Team2",
            "members": [
                "playerid2"
            ]
        }
    },
    "name": "matchName",
    "set": {
        "winner": "score max",
        "score": {
            "team1": 2,
            "team2": 3
        },
        "sets": {
            "winner": "score max",
            "score": [
                {
                    "team1": 11,
                    "team2": 3
                },
                {
                    "team1": 11,
                    "team2": 8
                },
                {
                    "team1": 2,
                    "team2": 11
                },
                {
                    "team1": 8,
                    "team2": 11
                },
                {
                    "team1": 2,
                    "team2": 11
                }
            ]
        }
    }
}